ccopy_reg
_reconstructor
p0
(coptofidelity.detection.trace
Trace
p1
c__builtin__
list
p2
(lp3
g0
(coptofidelity.detection.events
FingerEvent
p4
c__builtin__
object
p5
Ntp6
Rp7
(dp8
S'start_time'
p9
NsS'state'
p10
NsS'location'
p11
F541.0
sS'time'
p12
I0
sbag0
(g4
g5
Ntp13
Rp14
(dp15
g9
Nsg10
Nsg11
F540.5
sg12
I1
sbag0
(g4
g5
Ntp16
Rp17
(dp18
g9
Nsg10
Nsg11
F541.0
sg12
I104
sbag0
(g4
g5
Ntp19
Rp20
(dp21
g9
Nsg10
Nsg11
F540.5
sg12
I121
sbag0
(g4
g5
Ntp22
Rp23
(dp24
g9
Nsg10
Nsg11
F541.0
sg12
I123
sbag0
(g4
g5
Ntp25
Rp26
(dp27
g9
Nsg10
Nsg11
F540.5
sg12
I125
sbag0
(g4
g5
Ntp28
Rp29
(dp30
g9
Nsg10
Nsg11
F541.5
sg12
I126
sbag0
(g4
g5
Ntp31
Rp32
(dp33
g9
Nsg10
Nsg11
F541.0
sg12
I127
sbag0
(g4
g5
Ntp34
Rp35
(dp36
g9
Nsg10
Nsg11
F540.5
sg12
I130
sbag0
(g4
g5
Ntp37
Rp38
(dp39
g9
Nsg10
Nsg11
F541.0
sg12
I131
sbag0
(g4
g5
Ntp40
Rp41
(dp42
g9
Nsg10
Nsg11
F541.5
sg12
I136
sbag0
(g4
g5
Ntp43
Rp44
(dp45
g9
Nsg10
Nsg11
F541.0
sg12
I137
sbag0
(g4
g5
Ntp46
Rp47
(dp48
g9
Nsg10
Nsg11
F541.5
sg12
I141
sbag0
(g4
g5
Ntp49
Rp50
(dp51
g9
Nsg10
Nsg11
F541.0
sg12
I149
sbag0
(g4
g5
Ntp52
Rp53
(dp54
g9
Nsg10
Nsg11
F542.0
sg12
I151
sbag0
(g4
g5
Ntp55
Rp56
(dp57
g9
Nsg10
Nsg11
F541.5
sg12
I152
sbag0
(g4
g5
Ntp58
Rp59
(dp60
g9
Nsg10
Nsg11
F542.0
sg12
I154
sbag0
(g4
g5
Ntp61
Rp62
(dp63
g9
Nsg10
Nsg11
F542.5
sg12
I161
sbag0
(g4
g5
Ntp64
Rp65
(dp66
g9
Nsg10
Nsg11
F542.0
sg12
I164
sbag0
(g4
g5
Ntp67
Rp68
(dp69
g9
Nsg10
Nsg11
F542.5
sg12
I301
sbag0
(g4
g5
Ntp70
Rp71
(dp72
g9
Nsg10
Nsg11
F541.5
sg12
I316
sbag0
(g4
g5
Ntp73
Rp74
(dp75
g9
Nsg10
Nsg11
F540.5
sg12
I318
sbag0
(g4
g5
Ntp76
Rp77
(dp78
g9
Nsg10
Nsg11
F539.5
sg12
I320
sbag0
(g4
g5
Ntp79
Rp80
(dp81
g9
Nsg10
Nsg11
F539.0
sg12
I321
sbag0
(g4
g5
Ntp82
Rp83
(dp84
g9
Nsg10
Nsg11
F538.0
sg12
I322
sbag0
(g4
g5
Ntp85
Rp86
(dp87
g9
Nsg10
Nsg11
F537.0
sg12
I323
sbag0
(g4
g5
Ntp88
Rp89
(dp90
g9
Nsg10
Nsg11
F536.5
sg12
I324
sbag0
(g4
g5
Ntp91
Rp92
(dp93
g9
Nsg10
Nsg11
F535.5
sg12
I325
sbag0
(g4
g5
Ntp94
Rp95
(dp96
g9
Nsg10
Nsg11
F535.0
sg12
I326
sbag0
(g4
g5
Ntp97
Rp98
(dp99
g9
Nsg10
Nsg11
F533.5
sg12
I327
sbag0
(g4
g5
Ntp100
Rp101
(dp102
g9
Nsg10
Nsg11
F532.5
sg12
I328
sbag0
(g4
g5
Ntp103
Rp104
(dp105
g9
Nsg10
Nsg11
F531.5
sg12
I329
sbag0
(g4
g5
Ntp106
Rp107
(dp108
g9
Nsg10
Nsg11
F530.0
sg12
I330
sbag0
(g4
g5
Ntp109
Rp110
(dp111
g9
Nsg10
Nsg11
F528.5
sg12
I331
sbag0
(g4
g5
Ntp112
Rp113
(dp114
g9
Nsg10
Nsg11
F527.5
sg12
I332
sbag0
(g4
g5
Ntp115
Rp116
(dp117
g9
Nsg10
Nsg11
F526.0
sg12
I333
sbag0
(g4
g5
Ntp118
Rp119
(dp120
g9
Nsg10
Nsg11
F524.5
sg12
I334
sbag0
(g4
g5
Ntp121
Rp122
(dp123
g9
Nsg10
Nsg11
F523.0
sg12
I335
sbag0
(g4
g5
Ntp124
Rp125
(dp126
g9
Nsg10
Nsg11
F521.0
sg12
I336
sbag0
(g4
g5
Ntp127
Rp128
(dp129
g9
Nsg10
Nsg11
F519.5
sg12
I337
sbag0
(g4
g5
Ntp130
Rp131
(dp132
g9
Nsg10
Nsg11
F518.0
sg12
I338
sbag0
(g4
g5
Ntp133
Rp134
(dp135
g9
Nsg10
Nsg11
F516.0
sg12
I339
sbag0
(g4
g5
Ntp136
Rp137
(dp138
g9
Nsg10
Nsg11
F514.0
sg12
I340
sbag0
(g4
g5
Ntp139
Rp140
(dp141
g9
Nsg10
Nsg11
F512.0
sg12
I341
sbag0
(g4
g5
Ntp142
Rp143
(dp144
g9
Nsg10
Nsg11
F511.0
sg12
I342
sbag0
(g4
g5
Ntp145
Rp146
(dp147
g9
Nsg10
Nsg11
F509.0
sg12
I343
sbag0
(g4
g5
Ntp148
Rp149
(dp150
g9
Nsg10
Nsg11
F508.0
sg12
I344
sbag0
(g4
g5
Ntp151
Rp152
(dp153
g9
Nsg10
Nsg11
F506.0
sg12
I345
sbag0
(g4
g5
Ntp154
Rp155
(dp156
g9
Nsg10
Nsg11
F505.0
sg12
I346
sbag0
(g4
g5
Ntp157
Rp158
(dp159
g9
Nsg10
Nsg11
F504.5
sg12
I347
sbag0
(g4
g5
Ntp160
Rp161
(dp162
g9
Nsg10
Nsg11
F503.0
sg12
I348
sbag0
(g4
g5
Ntp163
Rp164
(dp165
g9
Nsg10
Nsg11
F501.5
sg12
I349
sbag0
(g4
g5
Ntp166
Rp167
(dp168
g9
Nsg10
Nsg11
F500.5
sg12
I350
sbag0
(g4
g5
Ntp169
Rp170
(dp171
g9
Nsg10
Nsg11
F499.5
sg12
I351
sbag0
(g4
g5
Ntp172
Rp173
(dp174
g9
Nsg10
Nsg11
F498.5
sg12
I353
sbag0
(g4
g5
Ntp175
Rp176
(dp177
g9
Nsg10
Nsg11
F497.5
sg12
I354
sbag0
(g4
g5
Ntp178
Rp179
(dp180
g9
Nsg10
Nsg11
F496.0
sg12
I356
sbag0
(g4
g5
Ntp181
Rp182
(dp183
g9
Nsg10
Nsg11
F495.5
sg12
I357
sbag0
(g4
g5
Ntp184
Rp185
(dp186
g9
Nsg10
Nsg11
F495.0
sg12
I358
sbag0
(g4
g5
Ntp187
Rp188
(dp189
g9
Nsg10
Nsg11
F494.5
sg12
I359
sbag0
(g4
g5
Ntp190
Rp191
(dp192
g9
Nsg10
Nsg11
F494.0
sg12
I360
sbag0
(coptofidelity.detection.events
LineDrawEvent
p193
g5
Ntp194
Rp195
(dp196
g9
I364
sg10
Nsg11
F541.0
sg12
I371
sbag0
(g4
g5
Ntp197
Rp198
(dp199
g9
Nsg10
Nsg11
F494.5
sg12
I373
sbag0
(g193
g5
Ntp200
Rp201
(dp202
g9
I376
sg10
Nsg11
F537.0
sg12
I379
sbag0
(g193
g5
Ntp203
Rp204
(dp205
g9
I381
sg10
Nsg11
F529.0
sg12
I384
sbag0
(g4
g5
Ntp206
Rp207
(dp208
g9
Nsg10
Nsg11
F495.0
sg12
I384
sbag0
(g193
g5
Ntp209
Rp210
(dp211
g9
I391
sg10
Nsg11
F522.0
sg12
I394
sbag0
(g4
g5
Ntp212
Rp213
(dp214
g9
Nsg10
Nsg11
F494.5
sg12
I397
sbag0
(g193
g5
Ntp215
Rp216
(dp217
g9
I396
sg10
Nsg11
F518.0
sg12
I399
sbag0
(g193
g5
Ntp218
Rp219
(dp220
g9
I401
sg10
Nsg11
F512.0
sg12
I404
sbag0
(g4
g5
Ntp221
Rp222
(dp223
g9
Nsg10
Nsg11
F495.0
sg12
I417
sbag0
(g193
g5
Ntp224
Rp225
(dp226
g9
I416
sg10
Nsg11
F508.0
sg12
I421
sbag0
(g4
g5
Ntp227
Rp228
(dp229
g9
Nsg10
Nsg11
F494.5
sg12
I433
sbag0
(g193
g5
Ntp230
Rp231
(dp232
g9
I431
sg10
Nsg11
F504.0
sg12
I435
sbag0
(g4
g5
Ntp233
Rp234
(dp235
g9
Nsg10
Nsg11
F494.0
sg12
I445
sbag0
(g4
g5
Ntp236
Rp237
(dp238
g9
Nsg10
Nsg11
F494.5
sg12
I457
sbag0
(g4
g5
Ntp239
Rp240
(dp241
g9
Nsg10
Nsg11
F495.0
sg12
I481
sbag0
(g4
g5
Ntp242
Rp243
(dp244
g9
Nsg10
Nsg11
F494.5
sg12
I505
sbag0
(g4
g5
Ntp245
Rp246
(dp247
g9
Nsg10
Nsg11
F494.0
sg12
I512
sbag0
(g4
g5
Ntp248
Rp249
(dp250
g9
Nsg10
Nsg11
F493.5
sg12
I513
sbag0
(g4
g5
Ntp251
Rp252
(dp253
g9
Nsg10
Nsg11
F493.0
sg12
I514
sbag0
(g4
g5
Ntp254
Rp255
(dp256
g9
Nsg10
Nsg11
F491.5
sg12
I515
sbag0
(g4
g5
Ntp257
Rp258
(dp259
g9
Nsg10
Nsg11
F490.5
sg12
I516
sbag0
(g4
g5
Ntp260
Rp261
(dp262
g9
Nsg10
Nsg11
F489.0
sg12
I517
sbag0
(g4
g5
Ntp263
Rp264
(dp265
g9
Nsg10
Nsg11
F488.0
sg12
I518
sbag0
(g4
g5
Ntp266
Rp267
(dp268
g9
Nsg10
Nsg11
F487.0
sg12
I519
sbag0
(g4
g5
Ntp269
Rp270
(dp271
g9
Nsg10
Nsg11
F485.0
sg12
I520
sbag0
(g4
g5
Ntp272
Rp273
(dp274
g9
Nsg10
Nsg11
F483.5
sg12
I521
sbag0
(g4
g5
Ntp275
Rp276
(dp277
g9
Nsg10
Nsg11
F481.5
sg12
I522
sbag0
(g4
g5
Ntp278
Rp279
(dp280
g9
Nsg10
Nsg11
F480.5
sg12
I523
sbag0
(g4
g5
Ntp281
Rp282
(dp283
g9
Nsg10
Nsg11
F478.5
sg12
I524
sbag0
(g4
g5
Ntp284
Rp285
(dp286
g9
Nsg10
Nsg11
F476.0
sg12
I525
sbag0
(g4
g5
Ntp287
Rp288
(dp289
g9
Nsg10
Nsg11
F474.0
sg12
I526
sbag0
(g4
g5
Ntp290
Rp291
(dp292
g9
Nsg10
Nsg11
F471.0
sg12
I527
sbag0
(g4
g5
Ntp293
Rp294
(dp295
g9
Nsg10
Nsg11
F469.0
sg12
I528
sbag0
(g4
g5
Ntp296
Rp297
(dp298
g9
Nsg10
Nsg11
F466.5
sg12
I529
sbag0
(g4
g5
Ntp299
Rp300
(dp301
g9
Nsg10
Nsg11
F463.5
sg12
I530
sbag0
(g4
g5
Ntp302
Rp303
(dp304
g9
Nsg10
Nsg11
F461.5
sg12
I531
sbag0
(g4
g5
Ntp305
Rp306
(dp307
g9
Nsg10
Nsg11
F458.5
sg12
I532
sbag0
(g4
g5
Ntp308
Rp309
(dp310
g9
Nsg10
Nsg11
F455.5
sg12
I533
sbag0
(g4
g5
Ntp311
Rp312
(dp313
g9
Nsg10
Nsg11
F452.5
sg12
I534
sbag0
(g4
g5
Ntp314
Rp315
(dp316
g9
Nsg10
Nsg11
F449.0
sg12
I535
sbag0
(g4
g5
Ntp317
Rp318
(dp319
g9
Nsg10
Nsg11
F445.5
sg12
I536
sbag0
(g4
g5
Ntp320
Rp321
(dp322
g9
Nsg10
Nsg11
F441.5
sg12
I537
sbag0
(g4
g5
Ntp323
Rp324
(dp325
g9
Nsg10
Nsg11
F438.5
sg12
I538
sbag0
(g4
g5
Ntp326
Rp327
(dp328
g9
Nsg10
Nsg11
F435.0
sg12
I539
sbag0
(g4
g5
Ntp329
Rp330
(dp331
g9
Nsg10
Nsg11
F432.0
sg12
I540
sbag0
(g4
g5
Ntp332
Rp333
(dp334
g9
Nsg10
Nsg11
F428.5
sg12
I541
sbag0
(g4
g5
Ntp335
Rp336
(dp337
g9
Nsg10
Nsg11
F425.5
sg12
I542
sbag0
(g4
g5
Ntp338
Rp339
(dp340
g9
Nsg10
Nsg11
F422.5
sg12
I543
sbag0
(g4
g5
Ntp341
Rp342
(dp343
g9
Nsg10
Nsg11
F419.5
sg12
I544
sbag0
(g4
g5
Ntp344
Rp345
(dp346
g9
Nsg10
Nsg11
F416.0
sg12
I545
sbag0
(g193
g5
Ntp347
Rp348
(dp349
g9
I452
sg10
Nsg11
F500.0
sg12
I546
sbag0
(g4
g5
Ntp350
Rp351
(dp352
g9
Nsg10
Nsg11
F412.5
sg12
I546
sbag0
(g4
g5
Ntp353
Rp354
(dp355
g9
Nsg10
Nsg11
F409.5
sg12
I547
sbag0
(g4
g5
Ntp356
Rp357
(dp358
g9
Nsg10
Nsg11
F406.5
sg12
I548
sbag0
(g4
g5
Ntp359
Rp360
(dp361
g9
Nsg10
Nsg11
F403.5
sg12
I549
sbag0
(g4
g5
Ntp362
Rp363
(dp364
g9
Nsg10
Nsg11
F400.0
sg12
I550
sbag0
(g4
g5
Ntp365
Rp366
(dp367
g9
Nsg10
Nsg11
F397.0
sg12
I551
sbag0
(g4
g5
Ntp368
Rp369
(dp370
g9
Nsg10
Nsg11
F393.5
sg12
I552
sbag0
(g4
g5
Ntp371
Rp372
(dp373
g9
Nsg10
Nsg11
F390.5
sg12
I553
sbag0
(g4
g5
Ntp374
Rp375
(dp376
g9
Nsg10
Nsg11
F387.5
sg12
I554
sbag0
(g4
g5
Ntp377
Rp378
(dp379
g9
Nsg10
Nsg11
F384.5
sg12
I555
sbag0
(g4
g5
Ntp380
Rp381
(dp382
g9
Nsg10
Nsg11
F381.5
sg12
I556
sbag0
(g4
g5
Ntp383
Rp384
(dp385
g9
Nsg10
Nsg11
F378.0
sg12
I557
sbag0
(g4
g5
Ntp386
Rp387
(dp388
g9
Nsg10
Nsg11
F374.5
sg12
I558
sbag0
(g4
g5
Ntp389
Rp390
(dp391
g9
Nsg10
Nsg11
F371.5
sg12
I559
sbag0
(g193
g5
Ntp392
Rp393
(dp394
g9
I551
sg10
Nsg11
F496.0
sg12
I560
sbag0
(g4
g5
Ntp395
Rp396
(dp397
g9
Nsg10
Nsg11
F368.5
sg12
I560
sbag0
(g4
g5
Ntp398
Rp399
(dp400
g9
Nsg10
Nsg11
F365.5
sg12
I561
sbag0
(g4
g5
Ntp401
Rp402
(dp403
g9
Nsg10
Nsg11
F362.0
sg12
I562
sbag0
(g4
g5
Ntp404
Rp405
(dp406
g9
Nsg10
Nsg11
F359.5
sg12
I563
sbag0
(g193
g5
Ntp407
Rp408
(dp409
g9
I561
sg10
Nsg11
F480.0
sg12
I564
sbag0
(g4
g5
Ntp410
Rp411
(dp412
g9
Nsg10
Nsg11
F356.0
sg12
I564
sbag0
(g4
g5
Ntp413
Rp414
(dp415
g9
Nsg10
Nsg11
F353.5
sg12
I565
sbag0
(g4
g5
Ntp416
Rp417
(dp418
g9
Nsg10
Nsg11
F350.0
sg12
I566
sbag0
(g4
g5
Ntp419
Rp420
(dp421
g9
Nsg10
Nsg11
F346.5
sg12
I567
sbag0
(g4
g5
Ntp422
Rp423
(dp424
g9
Nsg10
Nsg11
F343.5
sg12
I568
sbag0
(g193
g5
Ntp425
Rp426
(dp427
g9
I566
sg10
Nsg11
F466.0
sg12
I569
sbag0
(g4
g5
Ntp428
Rp429
(dp430
g9
Nsg10
Nsg11
F340.5
sg12
I569
sbag0
(g4
g5
Ntp431
Rp432
(dp433
g9
Nsg10
Nsg11
F337.5
sg12
I570
sbag0
(g4
g5
Ntp434
Rp435
(dp436
g9
Nsg10
Nsg11
F334.5
sg12
I571
sbag0
(g4
g5
Ntp437
Rp438
(dp439
g9
Nsg10
Nsg11
F331.5
sg12
I572
sbag0
(g4
g5
Ntp440
Rp441
(dp442
g9
Nsg10
Nsg11
F328.0
sg12
I573
sbag0
(g193
g5
Ntp443
Rp444
(dp445
g9
I571
sg10
Nsg11
F450.0
sg12
I574
sbag0
(g4
g5
Ntp446
Rp447
(dp448
g9
Nsg10
Nsg11
F325.0
sg12
I574
sbag0
(g4
g5
Ntp449
Rp450
(dp451
g9
Nsg10
Nsg11
F322.0
sg12
I575
sbag0
(g4
g5
Ntp452
Rp453
(dp454
g9
Nsg10
Nsg11
F318.5
sg12
I576
sbag0
(g4
g5
Ntp455
Rp456
(dp457
g9
Nsg10
Nsg11
F315.5
sg12
I577
sbag0
(g4
g5
Ntp458
Rp459
(dp460
g9
Nsg10
Nsg11
F312.5
sg12
I578
sbag0
(g4
g5
Ntp461
Rp462
(dp463
g9
Nsg10
Nsg11
F309.0
sg12
I579
sbag0
(g4
g5
Ntp464
Rp465
(dp466
g9
Nsg10
Nsg11
F306.0
sg12
I580
sbag0
(g4
g5
Ntp467
Rp468
(dp469
g9
Nsg10
Nsg11
F303.0
sg12
I581
sbag0
(g4
g5
Ntp470
Rp471
(dp472
g9
Nsg10
Nsg11
F300.5
sg12
I582
sbag0
(g4
g5
Ntp473
Rp474
(dp475
g9
Nsg10
Nsg11
F296.5
sg12
I583
sbag0
(g193
g5
Ntp476
Rp477
(dp478
g9
I581
sg10
Nsg11
F442.0
sg12
I584
sbag0
(g4
g5
Ntp479
Rp480
(dp481
g9
Nsg10
Nsg11
F293.5
sg12
I584
sbag0
(g4
g5
Ntp482
Rp483
(dp484
g9
Nsg10
Nsg11
F290.5
sg12
I585
sbag0
(g4
g5
Ntp485
Rp486
(dp487
g9
Nsg10
Nsg11
F287.0
sg12
I586
sbag0
(g4
g5
Ntp488
Rp489
(dp490
g9
Nsg10
Nsg11
F284.0
sg12
I587
sbag0
(g4
g5
Ntp491
Rp492
(dp493
g9
Nsg10
Nsg11
F281.0
sg12
I588
sbag0
(g193
g5
Ntp494
Rp495
(dp496
g9
I586
sg10
Nsg11
F424.0
sg12
I589
sbag0
(g4
g5
Ntp497
Rp498
(dp499
g9
Nsg10
Nsg11
F278.0
sg12
I589
sbag0
(g4
g5
Ntp500
Rp501
(dp502
g9
Nsg10
Nsg11
F275.0
sg12
I590
sbag0
(g4
g5
Ntp503
Rp504
(dp505
g9
Nsg10
Nsg11
F272.0
sg12
I591
sbag0
(g4
g5
Ntp506
Rp507
(dp508
g9
Nsg10
Nsg11
F268.5
sg12
I592
sbag0
(g4
g5
Ntp509
Rp510
(dp511
g9
Nsg10
Nsg11
F265.5
sg12
I593
sbag0
(g193
g5
Ntp512
Rp513
(dp514
g9
I591
sg10
Nsg11
F403.0
sg12
I594
sbag0
(g4
g5
Ntp515
Rp516
(dp517
g9
Nsg10
Nsg11
F262.5
sg12
I594
sbag0
(g4
g5
Ntp518
Rp519
(dp520
g9
Nsg10
Nsg11
F259.5
sg12
I595
sbag0
(g4
g5
Ntp521
Rp522
(dp523
g9
Nsg10
Nsg11
F256.5
sg12
I596
sbag0
(g4
g5
Ntp524
Rp525
(dp526
g9
Nsg10
Nsg11
F253.0
sg12
I597
sbag0
(g4
g5
Ntp527
Rp528
(dp529
g9
Nsg10
Nsg11
F250.0
sg12
I598
sbag0
(g4
g5
Ntp530
Rp531
(dp532
g9
Nsg10
Nsg11
F247.0
sg12
I599
sbag0
(g4
g5
Ntp533
Rp534
(dp535
g9
Nsg10
Nsg11
F244.0
sg12
I600
sbag0
(g4
g5
Ntp536
Rp537
(dp538
g9
Nsg10
Nsg11
F240.5
sg12
I601
sbag0
(g4
g5
Ntp539
Rp540
(dp541
g9
Nsg10
Nsg11
F237.5
sg12
I602
sbag0
(g4
g5
Ntp542
Rp543
(dp544
g9
Nsg10
Nsg11
F234.5
sg12
I603
sbag0
(g193
g5
Ntp545
Rp546
(dp547
g9
I601
sg10
Nsg11
F384.0
sg12
I604
sbag0
(g4
g5
Ntp548
Rp549
(dp550
g9
Nsg10
Nsg11
F231.5
sg12
I604
sbag0
(g4
g5
Ntp551
Rp552
(dp553
g9
Nsg10
Nsg11
F228.5
sg12
I605
sbag0
(g4
g5
Ntp554
Rp555
(dp556
g9
Nsg10
Nsg11
F224.5
sg12
I606
sbag0
(g4
g5
Ntp557
Rp558
(dp559
g9
Nsg10
Nsg11
F221.5
sg12
I607
sbag0
(g4
g5
Ntp560
Rp561
(dp562
g9
Nsg10
Nsg11
F218.5
sg12
I608
sbag0
(g4
g5
Ntp563
Rp564
(dp565
g9
Nsg10
Nsg11
F215.5
sg12
I609
sbag0
(g193
g5
Ntp566
Rp567
(dp568
g9
I606
sg10
Nsg11
F371.0
sg12
I610
sbag0
(g4
g5
Ntp569
Rp570
(dp571
g9
Nsg10
Nsg11
F212.5
sg12
I610
sbag0
(g4
g5
Ntp572
Rp573
(dp574
g9
Nsg10
Nsg11
F209.0
sg12
I611
sbag0
(g4
g5
Ntp575
Rp576
(dp577
g9
Nsg10
Nsg11
F206.5
sg12
I612
sbag0
(g4
g5
Ntp578
Rp579
(dp580
g9
Nsg10
Nsg11
F202.5
sg12
I613
sbag0
(g4
g5
Ntp581
Rp582
(dp583
g9
Nsg10
Nsg11
F199.5
sg12
I614
sbag0
(g4
g5
Ntp584
Rp585
(dp586
g9
Nsg10
Nsg11
F196.5
sg12
I615
sbag0
(g4
g5
Ntp587
Rp588
(dp589
g9
Nsg10
Nsg11
F193.5
sg12
I616
sbag0
(g4
g5
Ntp590
Rp591
(dp592
g9
Nsg10
Nsg11
F190.0
sg12
I617
sbag0
(g4
g5
Ntp593
Rp594
(dp595
g9
Nsg10
Nsg11
F187.5
sg12
I618
sbag0
(g4
g5
Ntp596
Rp597
(dp598
g9
Nsg10
Nsg11
F184.5
sg12
I619
sbag0
(g193
g5
Ntp599
Rp600
(dp601
g9
I617
sg10
Nsg11
F338.0
sg12
I620
sbag0
(g4
g5
Ntp602
Rp603
(dp604
g9
Nsg10
Nsg11
F181.5
sg12
I620
sbag0
(g4
g5
Ntp605
Rp606
(dp607
g9
Nsg10
Nsg11
F178.0
sg12
I621
sbag0
(g4
g5
Ntp608
Rp609
(dp610
g9
Nsg10
Nsg11
F175.0
sg12
I622
sbag0
(g4
g5
Ntp611
Rp612
(dp613
g9
Nsg10
Nsg11
F171.5
sg12
I623
sbag0
(g4
g5
Ntp614
Rp615
(dp616
g9
Nsg10
Nsg11
F168.0
sg12
I624
sbag0
(g193
g5
Ntp617
Rp618
(dp619
g9
I622
sg10
Nsg11
F331.0
sg12
I625
sbag0
(g4
g5
Ntp620
Rp621
(dp622
g9
Nsg10
Nsg11
F165.5
sg12
I625
sbag0
(g4
g5
Ntp623
Rp624
(dp625
g9
Nsg10
Nsg11
F162.0
sg12
I626
sbag0
(g4
g5
Ntp626
Rp627
(dp628
g9
Nsg10
Nsg11
F158.5
sg12
I627
sbag0
(g4
g5
Ntp629
Rp630
(dp631
g9
Nsg10
Nsg11
F155.0
sg12
I628
sbag0
(g4
g5
Ntp632
Rp633
(dp634
g9
Nsg10
Nsg11
F152.0
sg12
I629
sbag0
(g4
g5
Ntp635
Rp636
(dp637
g9
Nsg10
Nsg11
F149.0
sg12
I630
sbag0
(g4
g5
Ntp638
Rp639
(dp640
g9
Nsg10
Nsg11
F146.0
sg12
I631
sbag0
(g4
g5
Ntp641
Rp642
(dp643
g9
Nsg10
Nsg11
F142.5
sg12
I632
sbag0
(g4
g5
Ntp644
Rp645
(dp646
g9
Nsg10
Nsg11
F139.5
sg12
I633
sbag0
(g4
g5
Ntp647
Rp648
(dp649
g9
Nsg10
Nsg11
F136.5
sg12
I634
sbag0
(g193
g5
Ntp650
Rp651
(dp652
g9
I632
sg10
Nsg11
F293.0
sg12
I635
sbag0
(g4
g5
Ntp653
Rp654
(dp655
g9
Nsg10
Nsg11
F133.5
sg12
I635
sbag0
(g4
g5
Ntp656
Rp657
(dp658
g9
Nsg10
Nsg11
F130.5
sg12
I636
sbag0
(g4
g5
Ntp659
Rp660
(dp661
g9
Nsg10
Nsg11
F127.0
sg12
I637
sbag0
(g4
g5
Ntp662
Rp663
(dp664
g9
Nsg10
Nsg11
F124.0
sg12
I638
sbag0
(g4
g5
Ntp665
Rp666
(dp667
g9
Nsg10
Nsg11
F121.0
sg12
I639
sbag0
(g193
g5
Ntp668
Rp669
(dp670
g9
I637
sg10
Nsg11
F259.0
sg12
I640
sbag0
(g4
g5
Ntp671
Rp672
(dp673
g9
Nsg10
Nsg11
F117.5
sg12
I640
sbag0
(g4
g5
Ntp674
Rp675
(dp676
g9
Nsg10
Nsg11
F114.5
sg12
I641
sbag0
(g4
g5
Ntp677
Rp678
(dp679
g9
Nsg10
Nsg11
F111.5
sg12
I642
sbag0
(g4
g5
Ntp680
Rp681
(dp682
g9
Nsg10
Nsg11
F108.5
sg12
I643
sbag0
(g4
g5
Ntp683
Rp684
(dp685
g9
Nsg10
Nsg11
F105.0
sg12
I644
sbag0
(g4
g5
Ntp686
Rp687
(dp688
g9
Nsg10
Nsg11
F102.0
sg12
I645
sbag0
(g4
g5
Ntp689
Rp690
(dp691
g9
Nsg10
Nsg11
F98.5
sg12
I646
sbag0
(g4
g5
Ntp692
Rp693
(dp694
g9
Nsg10
Nsg11
F96.0
sg12
I647
sbag0
(g4
g5
Ntp695
Rp696
(dp697
g9
Nsg10
Nsg11
F93.0
sg12
I648
sbag0
(g4
g5
Ntp698
Rp699
(dp700
g9
Nsg10
Nsg11
F89.5
sg12
I649
sbag0
(g193
g5
Ntp701
Rp702
(dp703
g9
I647
sg10
Nsg11
F245.0
sg12
I650
sbag0
(g4
g5
Ntp704
Rp705
(dp706
g9
Nsg10
Nsg11
F86.5
sg12
I650
sbag0
(g4
g5
Ntp707
Rp708
(dp709
g9
Nsg10
Nsg11
F83.5
sg12
I651
sbag0
(g4
g5
Ntp710
Rp711
(dp712
g9
Nsg10
Nsg11
F80.0
sg12
I652
sbag0
(g4
g5
Ntp713
Rp714
(dp715
g9
Nsg10
Nsg11
F77.5
sg12
I653
sbag0
(g4
g5
Ntp716
Rp717
(dp718
g9
Nsg10
Nsg11
F74.0
sg12
I654
sbag0
(g193
g5
Ntp719
Rp720
(dp721
g9
I652
sg10
Nsg11
F223.0
sg12
I655
sbag0
(g4
g5
Ntp722
Rp723
(dp724
g9
Nsg10
Nsg11
F71.0
sg12
I655
sbag0
(g4
g5
Ntp725
Rp726
(dp727
g9
Nsg10
Nsg11
F68.0
sg12
I656
sbag0
(g4
g5
Ntp728
Rp729
(dp730
g9
Nsg10
Nsg11
F64.5
sg12
I657
sbag0
(g4
g5
Ntp731
Rp732
(dp733
g9
Nsg10
Nsg11
F62.0
sg12
I658
sbag0
(g4
g5
Ntp734
Rp735
(dp736
g9
Nsg10
Nsg11
F59.0
sg12
I659
sbag0
(g4
g5
Ntp737
Rp738
(dp739
g9
Nsg10
Nsg11
F56.5
sg12
I660
sbag0
(g4
g5
Ntp740
Rp741
(dp742
g9
Nsg10
Nsg11
F54.0
sg12
I661
sbag0
(g4
g5
Ntp743
Rp744
(dp745
g9
Nsg10
Nsg11
F51.5
sg12
I662
sbag0
(g4
g5
Ntp746
Rp747
(dp748
g9
Nsg10
Nsg11
F49.5
sg12
I663
sbag0
(g4
g5
Ntp749
Rp750
(dp751
g9
Nsg10
Nsg11
F47.5
sg12
I664
sbag0
(g193
g5
Ntp752
Rp753
(dp754
g9
I663
sg10
Nsg11
F182.0
sg12
I665
sbag0
(g4
g5
Ntp755
Rp756
(dp757
g9
Nsg10
Nsg11
F45.5
sg12
I665
sbag0
(g4
g5
Ntp758
Rp759
(dp760
g9
Nsg10
Nsg11
F43.5
sg12
I666
sbag0
(g4
g5
Ntp761
Rp762
(dp763
g9
Nsg10
Nsg11
F42.5
sg12
I667
sbag0
(g4
g5
Ntp764
Rp765
(dp766
g9
Nsg10
Nsg11
F41.0
sg12
I668
sbag0
(g4
g5
Ntp767
Rp768
(dp769
g9
Nsg10
Nsg11
F39.5
sg12
I669
sbag0
(g4
g5
Ntp770
Rp771
(dp772
g9
Nsg10
Nsg11
F38.0
sg12
I670
sbag0
(g193
g5
Ntp773
Rp774
(dp775
g9
I668
sg10
Nsg11
F165.0
sg12
I671
sbag0
(g4
g5
Ntp776
Rp777
(dp778
g9
Nsg10
Nsg11
F36.5
sg12
I671
sbag0
(g4
g5
Ntp779
Rp780
(dp781
g9
Nsg10
Nsg11
F35.5
sg12
I672
sbag0
(g4
g5
Ntp782
Rp783
(dp784
g9
Nsg10
Nsg11
F35.0
sg12
I673
sbag0
(g4
g5
Ntp785
Rp786
(dp787
g9
Nsg10
Nsg11
F34.0
sg12
I674
sbag0
(g4
g5
Ntp788
Rp789
(dp790
g9
Nsg10
Nsg11
F33.5
sg12
I675
sbag0
(g4
g5
Ntp791
Rp792
(dp793
g9
Nsg10
Nsg11
F33.0
sg12
I676
sbag0
(g4
g5
Ntp794
Rp795
(dp796
g9
Nsg10
Nsg11
F32.0
sg12
I677
sbag0
(g4
g5
Ntp797
Rp798
(dp799
g9
Nsg10
Nsg11
F31.5
sg12
I678
sbag0
(g4
g5
Ntp800
Rp801
(dp802
g9
Nsg10
Nsg11
F31.0
sg12
I679
sbag0
(g193
g5
Ntp803
Rp804
(dp805
g9
I678
sg10
Nsg11
F133.0
sg12
I681
sbag0
(g4
g5
Ntp806
Rp807
(dp808
g9
Nsg10
Nsg11
F31.5
sg12
I685
sbag0
(g193
g5
Ntp809
Rp810
(dp811
g9
I683
sg10
Nsg11
F115.0
sg12
I686
sbag0
(g4
g5
Ntp812
Rp813
(dp814
g9
Nsg10
Nsg11
F32.0
sg12
I688
sbag0
(g193
g5
Ntp815
Rp816
(dp817
g9
I688
sg10
Nsg11
F88.0
sg12
I691
sbag0
(g4
g5
Ntp818
Rp819
(dp820
g9
Nsg10
Nsg11
F32.5
sg12
I697
sbag0
(g193
g5
Ntp821
Rp822
(dp823
g9
I698
sg10
Nsg11
F72.0
sg12
I701
sbag0
(g193
g5
Ntp824
Rp825
(dp826
g9
I703
sg10
Nsg11
F64.0
sg12
I706
sbag0
(g193
g5
Ntp827
Rp828
(dp829
g9
I713
sg10
Nsg11
F50.0
sg12
I716
sbag0
(g4
g5
Ntp830
Rp831
(dp832
g9
Nsg10
Nsg11
F32.0
sg12
I721
sbag0
(g193
g5
Ntp833
Rp834
(dp835
g9
I723
sg10
Nsg11
F45.0
sg12
I724
sbag0
(g4
g5
Ntp836
Rp837
(dp838
g9
Nsg10
Nsg11
F32.5
sg12
I731
sbag0
(g4
g5
Ntp839
Rp840
(dp841
g9
Nsg10
Nsg11
F32.0
sg12
I733
sbag0
(g193
g5
Ntp842
Rp843
(dp844
g9
I737
sg10
Nsg11
F41.0
sg12
I741
sbag0
(g4
g5
Ntp845
Rp846
(dp847
g9
Nsg10
Nsg11
F32.5
sg12
I744
sbag0
(g4
g5
Ntp848
Rp849
(dp850
g9
Nsg10
Nsg11
F32.0
sg12
I749
sbag0
(g4
g5
Ntp851
Rp852
(dp853
g9
Nsg10
Nsg11
F32.5
sg12
I761
sbag0
(g4
g5
Ntp854
Rp855
(dp856
g9
Nsg10
Nsg11
F32.0
sg12
I763
sbag0
(g4
g5
Ntp857
Rp858
(dp859
g9
Nsg10
Nsg11
F32.5
sg12
I764
sbag0
(g4
g5
Ntp860
Rp861
(dp862
g9
Nsg10
Nsg11
F32.0
sg12
I765
sbag0
(g193
g5
Ntp863
Rp864
(dp865
g9
I753
sg10
Nsg11
F37.0
sg12
I768
sbag0
(g4
g5
Ntp866
Rp867
(dp868
g9
Nsg10
Nsg11
F32.5
sg12
I832
sbag0
(g4
g5
Ntp869
Rp870
(dp871
g9
Nsg10
Nsg11
F32.0
sg12
I835
sbag0
(g4
g5
Ntp872
Rp873
(dp874
g9
Nsg10
Nsg11
F31.5
sg12
I841
sbag0
(g4
g5
Ntp875
Rp876
(dp877
g9
Nsg10
Nsg11
F31.0
sg12
I843
sbag0
(g4
g5
Ntp878
Rp879
(dp880
g9
Nsg10
Nsg11
F30.5
sg12
I844
sbag0
(g4
g5
Ntp881
Rp882
(dp883
g9
Nsg10
Nsg11
F30.0
sg12
I845
sbag0
(g4
g5
Ntp884
Rp885
(dp886
g9
Nsg10
Nsg11
F29.5
sg12
I846
sbag0
(g4
g5
Ntp887
Rp888
(dp889
g9
Nsg10
Nsg11
F29.0
sg12
I848
sbag0
(g4
g5
Ntp890
Rp891
(dp892
g9
Nsg10
Nsg11
F28.5
sg12
I849
sbag0
(g4
g5
Ntp893
Rp894
(dp895
g9
Nsg10
Nsg11
F28.0
sg12
I850
sbag0
(g4
g5
Ntp896
Rp897
(dp898
g9
Nsg10
Nsg11
F27.5
sg12
I851
sbag0
(g4
g5
Ntp899
Rp900
(dp901
g9
Nsg10
Nsg11
F27.0
sg12
I852
sbag0
(g4
g5
Ntp902
Rp903
(dp904
g9
Nsg10
Nsg11
F26.5
sg12
I853
sbag0
(g4
g5
Ntp905
Rp906
(dp907
g9
Nsg10
Nsg11
F26.0
sg12
I854
sbag0
(g4
g5
Ntp908
Rp909
(dp910
g9
Nsg10
Nsg11
F25.5
sg12
I856
sbag0
(g4
g5
Ntp911
Rp912
(dp913
g9
Nsg10
Nsg11
F25.0
sg12
I857
sbag0
(g4
g5
Ntp914
Rp915
(dp916
g9
Nsg10
Nsg11
F24.5
sg12
I860
sbag0
(g4
g5
Ntp917
Rp918
(dp919
g9
Nsg10
Nsg11
F24.0
sg12
I862
sbag0
(g4
g5
Ntp920
Rp921
(dp922
g9
Nsg10
Nsg11
F23.5
sg12
I863
sbag0
(g4
g5
Ntp923
Rp924
(dp925
g9
Nsg10
Nsg11
F23.0
sg12
I867
sbag0
(g4
g5
Ntp926
Rp927
(dp928
g9
Nsg10
Nsg11
F22.5
sg12
I868
sbag0
(g4
g5
Ntp929
Rp930
(dp931
g9
Nsg10
Nsg11
F23.0
sg12
I870
sbag0
(g4
g5
Ntp932
Rp933
(dp934
g9
Nsg10
Nsg11
F22.5
sg12
I874
sbag0
(g4
g5
Ntp935
Rp936
(dp937
g9
Nsg10
Nsg11
F22.0
sg12
I877
sbag0
(g4
g5
Ntp938
Rp939
(dp940
g9
Nsg10
Nsg11
F22.5
sg12
I1007
sbag0
(g4
g5
Ntp941
Rp942
(dp943
g9
Nsg10
Nsg11
F22.0
sg12
I1099
sbag0
(g4
g5
Ntp944
Rp945
(dp946
g9
Nsg10
Nsg11
F22.5
sg12
I1122
sbag0
(g4
g5
Ntp947
Rp948
(dp949
g9
Nsg10
Nsg11
F22.0
sg12
I1123
sbag0
(g4
g5
Ntp950
Rp951
(dp952
g9
Nsg10
Nsg11
F22.5
sg12
I1124
sbag0
(g4
g5
Ntp953
Rp954
(dp955
g9
Nsg10
Nsg11
F23.0
sg12
I1126
sbag0
(g4
g5
Ntp956
Rp957
(dp958
g9
Nsg10
Nsg11
F22.5
sg12
I1128
sbag0
(g4
g5
Ntp959
Rp960
(dp961
g9
Nsg10
Nsg11
F23.5
sg12
I1129
sbag0
(g4
g5
Ntp962
Rp963
(dp964
g9
Nsg10
Nsg11
F23.0
sg12
I1130
sbag0
(g4
g5
Ntp965
Rp966
(dp967
g9
Nsg10
Nsg11
F23.5
sg12
I1131
sbag0
(g4
g5
Ntp968
Rp969
(dp970
g9
Nsg10
Nsg11
F24.5
sg12
I1135
sbag0
(g4
g5
Ntp971
Rp972
(dp973
g9
Nsg10
Nsg11
F25.0
sg12
I1138
sbag0
(g4
g5
Ntp974
Rp975
(dp976
g9
Nsg10
Nsg11
F25.5
sg12
I1139
sbag0
(g4
g5
Ntp977
Rp978
(dp979
g9
Nsg10
Nsg11
F26.0
sg12
I1140
sbag0
(g4
g5
Ntp980
Rp981
(dp982
g9
Nsg10
Nsg11
F26.5
sg12
I1144
sbag0
(g4
g5
Ntp983
Rp984
(dp985
g9
Nsg10
Nsg11
F27.0
sg12
I1145
sbag0
(g4
g5
Ntp986
Rp987
(dp988
g9
Nsg10
Nsg11
F26.0
sg12
I1146
sbag0
(g4
g5
Ntp989
Rp990
(dp991
g9
Nsg10
Nsg11
F27.5
sg12
I1147
sbag0
(g4
g5
Ntp992
Rp993
(dp994
g9
Nsg10
Nsg11
F28.0
sg12
I1148
sbag0
(g4
g5
Ntp995
Rp996
(dp997
g9
Nsg10
Nsg11
F28.5
sg12
I1150
sbag0
(g4
g5
Ntp998
Rp999
(dp1000
g9
Nsg10
Nsg11
F29.0
sg12
I1152
sbag0
(g4
g5
Ntp1001
Rp1002
(dp1003
g9
Nsg10
Nsg11
F29.5
sg12
I1155
sbag0
(g4
g5
Ntp1004
Rp1005
(dp1006
g9
Nsg10
Nsg11
F30.0
sg12
I1157
sbag0
(g4
g5
Ntp1007
Rp1008
(dp1009
g9
Nsg10
Nsg11
F30.5
sg12
I1158
sbag0
(g4
g5
Ntp1010
Rp1011
(dp1012
g9
Nsg10
Nsg11
F31.0
sg12
I1160
sbag0
(g4
g5
Ntp1013
Rp1014
(dp1015
g9
Nsg10
Nsg11
F31.5
sg12
I1162
sbag0
(g4
g5
Ntp1016
Rp1017
(dp1018
g9
Nsg10
Nsg11
F32.0
sg12
I1167
sbag0
(g4
g5
Ntp1019
Rp1020
(dp1021
g9
Nsg10
Nsg11
F31.5
sg12
I1168
sbag0
(g4
g5
Ntp1022
Rp1023
(dp1024
g9
Nsg10
Nsg11
F32.0
sg12
I1169
sbag0
(g4
g5
Ntp1025
Rp1026
(dp1027
g9
Nsg10
Nsg11
F32.5
sg12
I1182
sbatp1028
Rp1029
.