# device: Cypress APA Trackpad (cyapa)
# bit: 0B 00 00 00 00 00 00 00
# key: 00 00 00 00 00 00 00 00 00 00 00 00 00 00 00 00 00 00 00 00 00 00 00 00 00 00 00 00 00 00 00 00 00 00 01 00 00 00 00 00 20 E5 00 00 00 00 00 00 00 00 00 00 00 00 00 00 00 00 00 00 00 00 00 00 00 00 00 00 00 00 00 00 00 00 00 00 00 00 00 00 00 00 00 00 00 00 00 00 00 00 00 00 00 00 00 00
# rel: 00 00 00 00 00 00 00 00
# abs: 03 00 00 01 00 80 60 06
# led: 00 00 00 00 00 00 00 00
# prp: 05 00 00 00 00 00 00 00
# absinfo: 0 0 990 0 0 10
# absinfo: 1 0 650 0 0 10
# absinfo: 24 0 255 0 0 0
# absinfo: 47 0 14 0 0 0
# absinfo: 53 0 990 0 0 10
# absinfo: 54 0 650 0 0 10
# absinfo: 57 0 65535 0 0 0
# absinfo: 58 0 255 0 0 0
E: 2805.315574 0003 002f 0
E: 2805.315574 0003 0030 0
E: 2805.315574 0003 0031 0
E: 2805.315574 0003 0032 0
E: 2805.315574 0003 0033 0
E: 2805.315574 0003 0034 0
E: 2805.315574 0003 0035 349
E: 2805.315574 0003 0036 393
E: 2805.315574 0003 0037 0
E: 2805.315574 0003 0038 0
E: 2805.315574 0003 0039 305
E: 2805.315574 0003 003a 22
E: 2805.315574 0003 003b 0
E: 2805.315574 0003 002f 1
E: 2805.315574 0003 0039 -1
E: 2805.315574 0003 002f 2
E: 2805.315574 0003 0039 -1
E: 2805.315574 0003 002f 3
E: 2805.315574 0003 0039 -1
E: 2805.315574 0003 002f 4
E: 2805.315574 0003 0039 -1
E: 2805.315574 0003 002f 5
E: 2805.315574 0003 0039 -1
E: 2805.315574 0003 002f 6
E: 2805.315574 0003 0039 -1
E: 2805.315574 0003 002f 7
E: 2805.315574 0003 0039 -1
E: 2805.315574 0003 002f 8
E: 2805.315574 0003 0039 -1
E: 2805.315574 0003 002f 9
E: 2805.315574 0003 0039 -1
E: 2805.315574 0003 002f 10
E: 2805.315574 0003 0039 -1
E: 2805.315574 0003 002f 11
E: 2805.315574 0003 0039 -1
E: 2805.315574 0003 002f 12
E: 2805.315574 0003 0039 -1
E: 2805.315574 0003 002f 13
E: 2805.315574 0003 0039 -1
E: 2805.315574 0003 002f 14
E: 2805.315574 0003 0039 -1
E: 2805.315574 0003 002f 0
E: 2805.315574 0001 0145 1
E: 2805.315574 0001 014a 1
E: 2805.315574 0000 0000 0
E: 2805.328646 0003 0035 313
E: 2805.328646 0003 0036 394
E: 2805.328646 0003 003a 28
E: 2805.328646 0003 002f 1
E: 2805.328646 0003 0039 306
E: 2805.328646 0003 0035 510
E: 2805.328646 0003 0036 354
E: 2805.328646 0003 003a 19
E: 2805.328646 0001 0145 0
E: 2805.328646 0001 014d 1
E: 2805.328646 0003 0000 313
E: 2805.328646 0003 0001 394
E: 2805.328646 0003 0018 28
E: 2805.328646 0000 0000 0
E: 2805.341984 0003 002f 0
E: 2805.341984 0003 0036 393
E: 2805.341984 0003 003a 30
E: 2805.341984 0003 002f 1
E: 2805.341984 0003 0035 503
E: 2805.341984 0003 0036 356
E: 2805.341984 0003 003a 24
E: 2805.341984 0003 0001 393
E: 2805.341984 0003 0018 30
E: 2805.341984 0000 0000 0
E: 2805.355156 0003 002f 0
E: 2805.355156 0003 0036 392
E: 2805.355156 0003 0001 392
E: 2805.355156 0000 0000 0
E: 2805.368398 0003 003a 26
E: 2805.368398 0003 002f 1
E: 2805.368398 0003 003a 22
E: 2805.368398 0003 0018 26
E: 2805.368398 0000 0000 0
E: 2805.381511 0003 002f 0
E: 2805.381511 0003 0035 316
E: 2805.381511 0003 0036 396
E: 2805.381511 0003 003a 21
E: 2805.381511 0003 002f 1
E: 2805.381511 0003 0035 509
E: 2805.381511 0003 003a 17
E: 2805.381511 0003 0000 316
E: 2805.381511 0003 0001 396
E: 2805.381511 0003 0018 21
E: 2805.381511 0000 0000 0
E: 2805.392423 0003 002f 0
E: 2805.392423 0003 0035 334
E: 2805.392423 0003 0036 398
E: 2805.392423 0003 003a 8
E: 2805.392423 0003 002f 1
E: 2805.392423 0003 0039 -1
E: 2805.392423 0001 0145 1
E: 2805.392423 0001 014d 0
E: 2805.392423 0003 0000 334
E: 2805.392423 0003 0001 398
E: 2805.392423 0003 0018 8
E: 2805.392423 0000 0000 0
E: 2805.402295 0003 002f 0
E: 2805.402295 0003 0039 -1
E: 2805.402295 0001 014a 0
E: 2805.402295 0001 0145 0
E: 2805.402295 0003 0018 0
E: 2805.402295 0000 0000 0
E: 2805.402795 0003 002f 0
E: 2805.402795 0003 0039 -1
E: 2805.402795 0003 002f 1
E: 2805.402795 0003 0039 -1
E: 2805.402795 0003 002f 2
E: 2805.402795 0003 0039 -1
E: 2805.402795 0003 002f 3
E: 2805.402795 0003 0039 -1
E: 2805.402795 0003 002f 4
E: 2805.402795 0003 0039 -1
E: 2805.402795 0003 002f 5
E: 2805.402795 0003 0039 -1
E: 2805.402795 0003 002f 6
E: 2805.402795 0003 0039 -1
E: 2805.402795 0003 002f 7
E: 2805.402795 0003 0039 -1
E: 2805.402795 0003 002f 8
E: 2805.402795 0003 0039 -1
E: 2805.402795 0003 002f 9
E: 2805.402795 0003 0039 -1
E: 2805.402795 0003 002f 10
E: 2805.402795 0003 0039 -1
E: 2805.402795 0003 002f 11
E: 2805.402795 0003 0039 -1
E: 2805.402795 0003 002f 12
E: 2805.402795 0003 0039 -1
E: 2805.402795 0003 002f 13
E: 2805.402795 0003 0039 -1
E: 2805.402795 0003 002f 14
E: 2805.402795 0003 0039 -1
