# device: Elan Touchpad
# bit: 0B 00 00 00 00 00 00 00
# key: 00 00 00 00 00 00 00 00 00 00 00 00 00 00 00 00 00 00 00 00 00 00 00 00 00 00 00 00 00 00 00 00 00 00 01 00 00 00 00 00 20 E5 00 00 00 00 00 00 00 00 00 00 00 00 00 00 00 00 00 00 00 00 00 00 00 00 00 00 00 00 00 00 00 00 00 00 00 00 00 00 00 00 00 00 00 00 00 00 00 00 00 00 00 00 00 00
# rel: 00 00 00 00 00 00 00 00
# abs: 03 00 00 11 00 80 63 06
# led: 00 00 00 00 00 00 00 00
# prp: 05 00 00 00 00 00 00 00
# absinfo: 0 0 3029 0 0 31
# absinfo: 1 0 1645 0 0 31
# absinfo: 24 0 255 0 0 0
# absinfo: 28 0 15 0 0 0
# absinfo: 47 0 4 0 0 0
# absinfo: 48 0 2460 0 0 0
# absinfo: 49 0 2385 0 0 0
# absinfo: 53 0 3029 0 0 31
# absinfo: 54 0 1645 0 0 31
# absinfo: 57 0 65535 0 0 0
# absinfo: 58 0 255 0 0 0
E: 29630.838250 0003 002f 0
E: 29630.838250 0003 0030 222
E: 29630.838250 0003 0031 207
E: 29630.838250 0003 0032 0
E: 29630.838250 0003 0033 0
E: 29630.838250 0003 0034 0
E: 29630.838250 0003 0035 977
E: 29630.838250 0003 0036 242
E: 29630.838250 0003 0037 0
E: 29630.838250 0003 0038 0
E: 29630.838250 0003 0039 206
E: 29630.838250 0003 003a 43
E: 29630.838250 0003 003b 0
E: 29630.838250 0003 002f 1
E: 29630.838250 0003 0039 -1
E: 29630.838250 0003 002f 2
E: 29630.838250 0003 0039 -1
E: 29630.838250 0003 002f 3
E: 29630.838250 0003 0039 -1
E: 29630.838250 0003 002f 4
E: 29630.838250 0003 0039 -1
E: 29630.838250 0003 002f 0
E: 29630.838250 0001 0145 1
E: 29630.838250 0001 014a 1
E: 29630.838250 0000 0000 0
E: 29630.839626 0003 0035 982
E: 29630.839626 0003 0036 253
E: 29630.839626 0003 003a 46
E: 29630.839626 0003 002f 1
E: 29630.839626 0003 0039 207
E: 29630.839626 0003 0035 1535
E: 29630.839626 0003 0036 240
E: 29630.839626 0003 003a 43
E: 29630.839626 0003 001c 2
E: 29630.839626 0003 0030 222
E: 29630.839626 0003 0031 138
E: 29630.839626 0001 0145 0
E: 29630.839626 0001 014d 1
E: 29630.839626 0003 0000 982
E: 29630.839626 0003 0001 253
E: 29630.839626 0003 0018 46
E: 29630.839626 0000 0000 0
E: 29630.844263 0003 002f 0
E: 29630.844263 0003 0035 984
E: 29630.844263 0003 0036 258
E: 29630.844263 0003 003a 49
E: 29630.844263 0003 001c 3
E: 29630.844263 0003 002f 1
E: 29630.844263 0003 003a 48
E: 29630.844263 0003 0031 207
E: 29630.844263 0003 0000 984
E: 29630.844263 0003 0001 258
E: 29630.844263 0003 0018 49
E: 29630.844263 0000 0000 0
E: 29630.848795 0003 002f 0
E: 29630.848795 0003 0035 981
E: 29630.848795 0003 0036 267
E: 29630.848795 0003 003a 50
E: 29630.848795 0003 0030 296
E: 29630.848795 0003 002f 1
E: 29630.848795 0003 0036 243
E: 29630.848795 0003 003a 49
E: 29630.848795 0003 0000 981
E: 29630.848795 0003 0001 267
E: 29630.848795 0003 0018 50
E: 29630.848795 0000 0000 0
E: 29630.857239 0003 002f 0
E: 29630.857239 0003 0035 978
E: 29630.857239 0003 0036 277
E: 29630.857239 0003 003a 51
E: 29630.857239 0003 002f 1
E: 29630.857239 0003 0036 248
E: 29630.857239 0003 0000 978
E: 29630.857239 0003 0001 277
E: 29630.857239 0003 0018 51
E: 29630.857239 0000 0000 0
E: 29630.867033 0003 002f 0
E: 29630.867033 0003 0035 975
E: 29630.867033 0003 0036 288
E: 29630.867033 0003 002f 1
E: 29630.867033 0003 0036 256
E: 29630.867033 0003 0000 975
E: 29630.867033 0003 0001 288
E: 29630.867033 0000 0000 0
E: 29630.876790 0003 002f 0
E: 29630.876790 0003 0035 970
E: 29630.876790 0003 0036 304
E: 29630.876790 0003 0030 222
E: 29630.876790 0003 002f 1
E: 29630.876790 0003 0035 1534
E: 29630.876790 0003 0036 269
E: 29630.876790 0003 0030 296
E: 29630.876790 0003 0000 970
E: 29630.876790 0003 0001 304
E: 29630.876790 0000 0000 0
E: 29630.886565 0003 002f 0
E: 29630.886565 0003 0035 963
E: 29630.886565 0003 0036 338
E: 29630.886565 0003 003a 53
E: 29630.886565 0003 002f 1
E: 29630.886565 0003 0035 1527
E: 29630.886565 0003 0036 307
E: 29630.886565 0003 003a 50
E: 29630.886565 0003 001c 2
E: 29630.886565 0003 0030 222
E: 29630.886565 0003 0031 138
E: 29630.886565 0003 0000 963
E: 29630.886565 0003 0001 338
E: 29630.886565 0003 0018 53
E: 29630.886565 0000 0000 0
E: 29630.896356 0003 002f 0
E: 29630.896356 0003 0035 953
E: 29630.896356 0003 0036 404
E: 29630.896356 0003 003a 51
E: 29630.896356 0003 001c 3
E: 29630.896356 0003 0030 296
E: 29630.896356 0003 002f 1
E: 29630.896356 0003 0035 1518
E: 29630.896356 0003 0036 384
E: 29630.896356 0003 003a 49
E: 29630.896356 0003 001c 2
E: 29630.896356 0003 0000 953
E: 29630.896356 0003 0001 404
E: 29630.896356 0003 0018 51
E: 29630.896356 0000 0000 0
E: 29630.906126 0003 002f 0
E: 29630.906126 0003 0035 941
E: 29630.906126 0003 0036 535
E: 29630.906126 0003 001c 4
E: 29630.906126 0003 0030 276
E: 29630.906126 0003 0031 222
E: 29630.906126 0003 002f 1
E: 29630.906126 0003 0035 1494
E: 29630.906126 0003 0036 563
E: 29630.906126 0003 001c 3
E: 29630.906126 0003 0031 207
E: 29630.906126 0003 0000 941
E: 29630.906126 0003 0001 535
E: 29630.906126 0000 0000 0
E: 29630.915823 0003 002f 0
E: 29630.915823 0003 0035 953
E: 29630.915823 0003 0036 706
E: 29630.915823 0003 003a 49
E: 29630.915823 0003 0030 222
E: 29630.915823 0003 0031 207
E: 29630.915823 0003 002f 1
E: 29630.915823 0003 0035 1492
E: 29630.915823 0003 0036 757
E: 29630.915823 0003 003a 45
E: 29630.915823 0003 001c 4
E: 29630.915823 0003 0030 276
E: 29630.915823 0003 0031 148
E: 29630.915823 0003 0000 953
E: 29630.915823 0003 0001 706
E: 29630.915823 0003 0018 49
E: 29630.915823 0000 0000 0
E: 29630.925702 0003 002f 0
E: 29630.925702 0003 0036 878
E: 29630.925702 0003 003a 48
E: 29630.925702 0003 0030 276
E: 29630.925702 0003 0031 148
E: 29630.925702 0003 002f 1
E: 29630.925702 0003 0035 1495
E: 29630.925702 0003 0036 988
E: 29630.925702 0003 003a 42
E: 29630.925702 0003 001c 3
E: 29630.925702 0003 0030 207
E: 29630.925702 0003 0001 878
E: 29630.925702 0003 0018 48
E: 29630.925702 0000 0000 0
E: 29630.935474 0003 002f 0
E: 29630.935474 0003 0035 982
E: 29630.935474 0003 0036 1102
E: 29630.935474 0003 003a 44
E: 29630.935474 0003 0030 222
E: 29630.935474 0003 0031 207
E: 29630.935474 0003 002f 1
E: 29630.935474 0003 0035 1514
E: 29630.935474 0003 0036 1239
E: 29630.935474 0003 003a 41
E: 29630.935474 0003 001c 2
E: 29630.935474 0003 0030 148
E: 29630.935474 0003 0031 138
E: 29630.935474 0003 0000 982
E: 29630.935474 0003 0001 1102
E: 29630.935474 0003 0018 44
E: 29630.935474 0000 0000 0
E: 29630.945261 0003 002f 0
E: 29630.945261 0003 0035 1011
E: 29630.945261 0003 0036 1326
E: 29630.945261 0003 001c 3
E: 29630.945261 0003 0030 207
E: 29630.945261 0003 0031 148
E: 29630.945261 0003 002f 1
E: 29630.945261 0003 0035 1533
E: 29630.945261 0003 0036 1490
E: 29630.945261 0003 001c 1
E: 29630.945261 0003 0030 74
E: 29630.945261 0003 0031 69
E: 29630.945261 0003 0000 1011
E: 29630.945261 0003 0001 1326
E: 29630.945261 0000 0000 0
E: 29630.955039 0003 002f 0
E: 29630.955039 0003 0035 1028
E: 29630.955039 0003 0036 1450
E: 29630.955039 0003 003a 41
E: 29630.955039 0003 001c 3
E: 29630.955039 0003 002f 1
E: 29630.955039 0003 0035 1544
E: 29630.955039 0003 0036 1644
E: 29630.955039 0003 001c 1
E: 29630.955039 0003 0000 1028
E: 29630.955039 0003 0001 1450
E: 29630.955039 0003 0018 41
E: 29630.955039 0000 0000 0
E: 29630.964773 0003 002f 0
E: 29630.964773 0003 0030 74
E: 29630.964773 0003 0031 69
E: 29630.964773 0003 002f 1
E: 29630.964773 0003 0039 -1
E: 29630.964773 0001 0145 1
E: 29630.964773 0001 014d 0
E: 29630.964773 0000 0000 0
E: 29630.974496 0003 002f 0
E: 29630.974496 0003 0039 -1
E: 29630.974496 0001 014a 0
E: 29630.974496 0001 0145 0
E: 29630.974496 0003 0018 0
E: 29630.974496 0000 0000 0
E: 29631.325692 0003 0039 208
E: 29631.325692 0003 0035 1066
E: 29631.325692 0003 0036 408
E: 29631.325692 0003 003a 45
E: 29631.325692 0003 001c 3
E: 29631.325692 0003 0030 222
E: 29631.325692 0003 0031 207
E: 29631.325692 0001 014a 1
E: 29631.325692 0001 0145 1
E: 29631.325692 0003 0000 1066
E: 29631.325692 0003 0001 408
E: 29631.325692 0003 0018 45
E: 29631.325692 0000 0000 0
E: 29631.330045 0003 0035 1069
E: 29631.330045 0003 0036 411
E: 29631.330045 0003 003a 50
E: 29631.330045 0003 002f 1
E: 29631.330045 0003 0039 209
E: 29631.330045 0003 0035 1624
E: 29631.330045 0003 0036 427
E: 29631.330045 0003 003a 49
E: 29631.330045 0003 001c 4
E: 29631.330045 0003 0030 276
E: 29631.330045 0003 0031 222
E: 29631.330045 0001 0145 0
E: 29631.330045 0001 014d 1
E: 29631.330045 0003 0000 1069
E: 29631.330045 0003 0001 411
E: 29631.330045 0003 0018 50
E: 29631.330045 0000 0000 0
E: 29631.336487 0003 002f 0
E: 29631.336487 0003 0035 1071
E: 29631.336487 0003 0036 413
E: 29631.336487 0003 003a 51
E: 29631.336487 0003 001c 3
E: 29631.336487 0003 002f 1
E: 29631.336487 0003 003a 50
E: 29631.336487 0003 001c 4
E: 29631.336487 0003 0000 1071
E: 29631.336487 0003 0001 413
E: 29631.336487 0003 0018 51
E: 29631.336487 0000 0000 0
E: 29631.346263 0003 002f 0
E: 29631.346263 0003 0035 1072
E: 29631.346263 0003 0036 414
E: 29631.346263 0003 001c 3
E: 29631.346263 0003 001c 4
E: 29631.346263 0003 0000 1072
E: 29631.346263 0003 0001 414
E: 29631.346263 0000 0000 0
E: 29631.356046 0003 0035 1073
E: 29631.356046 0003 001c 3
E: 29631.356046 0003 001c 4
E: 29631.356046 0003 0000 1073
E: 29631.356046 0000 0000 0
E: 29631.365833 0003 0035 1074
E: 29631.365833 0003 001c 3
E: 29631.365833 0003 002f 1
E: 29631.365833 0003 003a 51
E: 29631.365833 0003 001c 4
E: 29631.365833 0003 0000 1074
E: 29631.365833 0000 0000 0
E: 29631.375551 0003 001c 3
E: 29631.375551 0003 001c 4
E: 29631.375551 0000 0000 0
E: 29631.385397 0003 001c 3
E: 29631.385397 0003 001c 4
E: 29631.385397 0000 0000 0
E: 29631.395163 0003 002f 0
E: 29631.395163 0003 0035 1075
E: 29631.395163 0003 0036 415
E: 29631.395163 0003 003a 52
E: 29631.395163 0003 001c 3
E: 29631.395163 0003 001c 4
E: 29631.395163 0003 0000 1075
E: 29631.395163 0003 0001 415
E: 29631.395163 0003 0018 52
E: 29631.395163 0000 0000 0
E: 29631.404958 0003 0035 1076
E: 29631.404958 0003 0036 416
E: 29631.404958 0003 001c 3
E: 29631.404958 0003 001c 4
E: 29631.404958 0003 0000 1076
E: 29631.404958 0003 0001 416
E: 29631.404958 0000 0000 0
E: 29631.414680 0003 0036 417
E: 29631.414680 0003 001c 3
E: 29631.414680 0003 001c 4
E: 29631.414680 0003 0001 417
E: 29631.414680 0000 0000 0
E: 29631.424525 0003 001c 3
E: 29631.424525 0003 002f 1
E: 29631.424525 0003 003a 52
E: 29631.424525 0003 001c 4
E: 29631.424525 0000 0000 0
E: 29631.434306 0003 001c 3
E: 29631.434306 0003 001c 4
E: 29631.434306 0000 0000 0
E: 29631.444109 0003 001c 3
E: 29631.444109 0003 001c 4
E: 29631.444109 0000 0000 0
E: 29631.453867 0003 001c 3
E: 29631.453867 0003 003a 51
E: 29631.453867 0003 001c 4
E: 29631.453867 0000 0000 0
E: 29631.463597 0003 001c 3
E: 29631.463597 0003 001c 4
E: 29631.463597 0000 0000 0
E: 29631.473443 0003 001c 3
E: 29631.473443 0003 001c 4
E: 29631.473443 0000 0000 0
E: 29631.483212 0003 002f 0
E: 29631.483212 0003 0036 416
E: 29631.483212 0003 001c 3
E: 29631.483212 0003 001c 4
E: 29631.483212 0003 0001 416
E: 29631.483212 0000 0000 0
E: 29631.493027 0003 001c 3
E: 29631.493027 0003 001c 4
E: 29631.493027 0000 0000 0
E: 29631.502780 0003 0036 415
E: 29631.502780 0003 001c 3
E: 29631.502780 0003 001c 4
E: 29631.502780 0003 0001 415
E: 29631.502780 0000 0000 0
E: 29631.512561 0003 001c 3
E: 29631.512561 0003 001c 4
E: 29631.512561 0000 0000 0
E: 29631.522354 0003 001c 3
E: 29631.522354 0003 001c 4
E: 29631.522354 0000 0000 0
E: 29631.532022 0003 001c 3
E: 29631.532022 0003 001c 4
E: 29631.532022 0000 0000 0
E: 29631.541914 0003 001c 3
E: 29631.541914 0003 001c 4
E: 29631.541914 0000 0000 0
E: 29631.551649 0003 001c 3
E: 29631.551649 0003 001c 4
E: 29631.551649 0000 0000 0
E: 29631.561484 0003 001c 3
E: 29631.561484 0003 001c 4
E: 29631.561484 0000 0000 0
E: 29631.571249 0003 001c 3
E: 29631.571249 0003 001c 4
E: 29631.571249 0000 0000 0
E: 29631.580960 0003 001c 3
E: 29631.580960 0003 001c 4
E: 29631.580960 0000 0000 0
E: 29631.590713 0003 001c 3
E: 29631.590713 0003 001c 4
E: 29631.590713 0000 0000 0
E: 29631.600610 0003 001c 3
E: 29631.600610 0003 001c 4
E: 29631.600610 0000 0000 0
E: 29631.610275 0003 001c 3
E: 29631.610275 0003 001c 4
E: 29631.610275 0000 0000 0
E: 29631.620178 0003 001c 3
E: 29631.620178 0003 001c 4
E: 29631.620178 0000 0000 0
E: 29631.629846 0003 001c 3
E: 29631.629846 0003 001c 4
E: 29631.629846 0000 0000 0
E: 29631.639628 0003 001c 3
E: 29631.639628 0003 001c 4
E: 29631.639628 0000 0000 0
E: 29631.649509 0003 001c 3
E: 29631.649509 0003 001c 4
E: 29631.649509 0000 0000 0
E: 29631.659185 0003 001c 3
E: 29631.659185 0003 001c 4
E: 29631.659185 0000 0000 0
E: 29631.669087 0003 001c 3
E: 29631.669087 0003 001c 4
E: 29631.669087 0000 0000 0
E: 29631.678865 0003 001c 3
E: 29631.678865 0003 002f 1
E: 29631.678865 0003 003a 52
E: 29631.678865 0003 001c 4
E: 29631.678865 0000 0000 0
E: 29631.688586 0003 001c 3
E: 29631.688586 0003 001c 4
E: 29631.688586 0000 0000 0
E: 29631.698430 0003 001c 3
E: 29631.698430 0003 001c 4
E: 29631.698430 0000 0000 0
E: 29631.708211 0003 001c 3
E: 29631.708211 0003 001c 4
E: 29631.708211 0000 0000 0
E: 29631.717988 0003 001c 3
E: 29631.717988 0003 001c 4
E: 29631.717988 0000 0000 0
E: 29631.727780 0003 001c 3
E: 29631.727780 0003 001c 4
E: 29631.727780 0000 0000 0
E: 29631.737551 0003 001c 3
E: 29631.737551 0003 001c 4
E: 29631.737551 0000 0000 0
E: 29631.747263 0003 001c 3
E: 29631.747263 0003 001c 4
E: 29631.747263 0000 0000 0
E: 29631.757019 0003 001c 3
E: 29631.757019 0003 001c 4
E: 29631.757019 0000 0000 0
E: 29631.766893 0003 001c 3
E: 29631.766893 0003 003a 51
E: 29631.766893 0003 001c 4
E: 29631.766893 0000 0000 0
E: 29631.776573 0003 001c 3
E: 29631.776573 0003 001c 4
E: 29631.776573 0000 0000 0
E: 29631.786465 0003 001c 3
E: 29631.786465 0003 003a 52
E: 29631.786465 0003 001c 4
E: 29631.786465 0000 0000 0
E: 29631.796241 0003 001c 3
E: 29631.796241 0003 001c 4
E: 29631.796241 0000 0000 0
E: 29631.806033 0003 001c 3
E: 29631.806033 0003 001c 4
E: 29631.806033 0000 0000 0
E: 29631.815804 0003 001c 3
E: 29631.815804 0003 001c 4
E: 29631.815804 0000 0000 0
E: 29631.825528 0003 001c 3
E: 29631.825528 0003 003a 51
E: 29631.825528 0003 001c 4
E: 29631.825528 0000 0000 0
E: 29631.835364 0003 001c 3
E: 29631.835364 0003 003a 52
E: 29631.835364 0003 001c 4
E: 29631.835364 0000 0000 0
E: 29631.845138 0003 002f 0
E: 29631.845138 0003 0035 1075
E: 29631.845138 0003 001c 3
E: 29631.845138 0003 001c 4
E: 29631.845138 0003 0000 1075
E: 29631.845138 0000 0000 0
E: 29631.854927 0003 001c 3
E: 29631.854927 0003 001c 4
E: 29631.854927 0000 0000 0
E: 29631.864613 0003 001c 3
E: 29631.864613 0003 001c 4
E: 29631.864613 0000 0000 0
E: 29631.874372 0003 001c 3
E: 29631.874372 0003 001c 4
E: 29631.874372 0000 0000 0
E: 29631.884223 0003 001c 3
E: 29631.884223 0003 002f 1
E: 29631.884223 0003 003a 51
E: 29631.884223 0003 001c 4
E: 29631.884223 0000 0000 0
E: 29631.893941 0003 001c 3
E: 29631.893941 0003 001c 4
E: 29631.893941 0000 0000 0
E: 29631.903716 0003 001c 3
E: 29631.903716 0003 003a 52
E: 29631.903716 0003 001c 4
E: 29631.903716 0000 0000 0
E: 29631.913608 0003 001c 3
E: 29631.913608 0003 001c 4
E: 29631.913608 0000 0000 0
E: 29631.923400 0003 001c 3
E: 29631.923400 0003 001c 4
E: 29631.923400 0000 0000 0
E: 29631.933185 0003 001c 3
E: 29631.933185 0003 001c 4
E: 29631.933185 0000 0000 0
E: 29631.942965 0003 001c 3
E: 29631.942965 0003 001c 4
E: 29631.942965 0000 0000 0
E: 29631.952745 0003 001c 3
E: 29631.952745 0003 001c 4
E: 29631.952745 0000 0000 0
E: 29631.962525 0003 001c 3
E: 29631.962525 0003 001c 4
E: 29631.962525 0000 0000 0
E: 29631.972300 0003 002f 0
E: 29631.972300 0003 0036 416
E: 29631.972300 0003 001c 3
E: 29631.972300 0003 001c 4
E: 29631.972300 0003 0001 416
E: 29631.972300 0000 0000 0
E: 29631.982085 0003 001c 3
E: 29631.982085 0003 001c 4
E: 29631.982085 0000 0000 0
E: 29631.991783 0003 001c 3
E: 29631.991783 0003 001c 4
E: 29631.991783 0000 0000 0
E: 29632.001532 0003 001c 3
E: 29632.001532 0003 001c 4
E: 29632.001532 0000 0000 0
E: 29632.011422 0003 0036 417
E: 29632.011422 0003 003a 53
E: 29632.011422 0003 001c 3
E: 29632.011422 0003 002f 1
E: 29632.011422 0003 003a 53
E: 29632.011422 0003 001c 4
E: 29632.011422 0003 0001 417
E: 29632.011422 0003 0018 53
E: 29632.011422 0000 0000 0
E: 29632.021099 0003 002f 0
E: 29632.021099 0003 0036 418
E: 29632.021099 0003 001c 3
E: 29632.021099 0003 001c 4
E: 29632.021099 0003 0001 418
E: 29632.021099 0000 0000 0
E: 29632.030985 0003 001c 3
E: 29632.030985 0003 001c 4
E: 29632.030985 0000 0000 0
E: 29632.040763 0003 001c 3
E: 29632.040763 0003 001c 4
E: 29632.040763 0000 0000 0
E: 29632.050553 0003 001c 3
E: 29632.050553 0003 001c 4
E: 29632.050553 0000 0000 0
E: 29632.060322 0003 001c 3
E: 29632.060322 0003 001c 4
E: 29632.060322 0000 0000 0
E: 29632.070118 0003 001c 3
E: 29632.070118 0003 001c 4
E: 29632.070118 0000 0000 0
E: 29632.079889 0003 001c 3
E: 29632.079889 0003 001c 4
E: 29632.079889 0000 0000 0
E: 29632.089608 0003 001c 3
E: 29632.089608 0003 001c 4
E: 29632.089608 0000 0000 0
E: 29632.099437 0003 001c 3
E: 29632.099437 0003 001c 4
E: 29632.099437 0000 0000 0
E: 29632.109127 0003 001c 3
E: 29632.109127 0003 001c 4
E: 29632.109127 0000 0000 0
E: 29632.119031 0003 001c 3
E: 29632.119031 0003 001c 4
E: 29632.119031 0000 0000 0
E: 29632.128796 0003 001c 3
E: 29632.128796 0003 001c 4
E: 29632.128796 0000 0000 0
E: 29632.138466 0003 001c 3
E: 29632.138466 0003 001c 4
E: 29632.138466 0000 0000 0
E: 29632.148353 0003 001c 3
E: 29632.148353 0003 001c 4
E: 29632.148353 0000 0000 0
E: 29632.158126 0003 003a 52
E: 29632.158126 0003 001c 3
E: 29632.158126 0003 002f 1
E: 29632.158126 0003 003a 52
E: 29632.158126 0003 001c 4
E: 29632.158126 0003 0018 52
E: 29632.158126 0000 0000 0
E: 29632.167918 0003 002f 0
E: 29632.167918 0003 003a 53
E: 29632.167918 0003 001c 3
E: 29632.167918 0003 002f 1
E: 29632.167918 0003 003a 53
E: 29632.167918 0003 001c 4
E: 29632.167918 0003 0018 53
E: 29632.167918 0000 0000 0
E: 29632.177641 0003 001c 3
E: 29632.177641 0003 001c 4
E: 29632.177641 0000 0000 0
E: 29632.187505 0003 001c 3
E: 29632.187505 0003 001c 4
E: 29632.187505 0000 0000 0
E: 29632.197252 0003 001c 3
E: 29632.197252 0003 001c 4
E: 29632.197252 0000 0000 0
E: 29632.207037 0003 002f 0
E: 29632.207037 0003 003a 52
E: 29632.207037 0003 001c 3
E: 29632.207037 0003 002f 1
E: 29632.207037 0003 003a 52
E: 29632.207037 0003 001c 4
E: 29632.207037 0003 0018 52
E: 29632.207037 0000 0000 0
E: 29632.216813 0003 001c 3
E: 29632.216813 0003 001c 4
E: 29632.216813 0000 0000 0
E: 29632.226485 0003 002f 0
E: 29632.226485 0003 003a 53
E: 29632.226485 0003 001c 3
E: 29632.226485 0003 002f 1
E: 29632.226485 0003 003a 53
E: 29632.226485 0003 001c 4
E: 29632.226485 0003 0018 53
E: 29632.226485 0000 0000 0
E: 29632.236267 0003 002f 0
E: 29632.236267 0003 003a 52
E: 29632.236267 0003 001c 3
E: 29632.236267 0003 002f 1
E: 29632.236267 0003 003a 52
E: 29632.236267 0003 001c 4
E: 29632.236267 0003 0018 52
E: 29632.236267 0000 0000 0
E: 29632.246151 0003 002f 0
E: 29632.246151 0003 003a 53
E: 29632.246151 0003 001c 3
E: 29632.246151 0003 002f 1
E: 29632.246151 0003 003a 53
E: 29632.246151 0003 001c 4
E: 29632.246151 0003 0018 53
E: 29632.246151 0000 0000 0
E: 29632.255826 0003 001c 3
E: 29632.255826 0003 003a 52
E: 29632.255826 0003 001c 4
E: 29632.255826 0000 0000 0
E: 29632.265710 0003 001c 3
E: 29632.265710 0003 001c 4
E: 29632.265710 0000 0000 0
E: 29632.275500 0003 002f 0
E: 29632.275500 0003 003a 52
E: 29632.275500 0003 001c 3
E: 29632.275500 0003 001c 4
E: 29632.275500 0003 0018 52
E: 29632.275500 0000 0000 0
E: 29632.285272 0003 001c 3
E: 29632.285272 0003 001c 4
E: 29632.285272 0000 0000 0
E: 29632.295050 0003 001c 3
E: 29632.295050 0003 001c 4
E: 29632.295050 0000 0000 0
E: 29632.304828 0003 001c 3
E: 29632.304828 0003 001c 4
E: 29632.304828 0000 0000 0
E: 29632.314563 0003 001c 3
E: 29632.314563 0003 001c 4
E: 29632.314563 0000 0000 0
E: 29632.324397 0003 003a 53
E: 29632.324397 0003 001c 3
E: 29632.324397 0003 001c 4
E: 29632.324397 0003 0018 53
E: 29632.324397 0000 0000 0
E: 29632.334172 0003 003a 52
E: 29632.334172 0003 001c 3
E: 29632.334172 0003 001c 4
E: 29632.334172 0003 0018 52
E: 29632.334172 0000 0000 0
E: 29632.343950 0003 003a 53
E: 29632.343950 0003 001c 3
E: 29632.343950 0003 001c 4
E: 29632.343950 0003 0018 53
E: 29632.343950 0000 0000 0
E: 29632.353633 0003 001c 3
E: 29632.353633 0003 001c 4
E: 29632.353633 0000 0000 0
E: 29632.363523 0003 003a 52
E: 29632.363523 0003 001c 3
E: 29632.363523 0003 001c 4
E: 29632.363523 0003 0018 52
E: 29632.363523 0000 0000 0
E: 29632.373182 0003 003a 53
E: 29632.373182 0003 001c 3
E: 29632.373182 0003 002f 1
E: 29632.373182 0003 003a 53
E: 29632.373182 0003 001c 4
E: 29632.373182 0003 0018 53
E: 29632.373182 0000 0000 0
E: 29632.382965 0003 001c 3
E: 29632.382965 0003 001c 4
E: 29632.382965 0000 0000 0
E: 29632.392806 0003 001c 3
E: 29632.392806 0003 001c 4
E: 29632.392806 0000 0000 0
E: 29632.402630 0003 001c 3
E: 29632.402630 0003 001c 4
E: 29632.402630 0000 0000 0
E: 29632.412422 0003 001c 3
E: 29632.412422 0003 001c 4
E: 29632.412422 0000 0000 0
E: 29632.422203 0003 001c 3
E: 29632.422203 0003 001c 4
E: 29632.422203 0000 0000 0
E: 29632.431980 0003 001c 3
E: 29632.431980 0003 001c 4
E: 29632.431980 0000 0000 0
E: 29632.441762 0003 001c 3
E: 29632.441762 0003 001c 4
E: 29632.441762 0000 0000 0
E: 29632.451540 0003 001c 3
E: 29632.451540 0003 001c 4
E: 29632.451540 0000 0000 0
E: 29632.461327 0003 001c 3
E: 29632.461327 0003 001c 4
E: 29632.461327 0000 0000 0
E: 29632.471111 0003 001c 3
E: 29632.471111 0003 001c 4
E: 29632.471111 0000 0000 0
E: 29632.480766 0003 001c 3
E: 29632.480766 0003 001c 4
E: 29632.480766 0000 0000 0
E: 29632.490669 0003 001c 3
E: 29632.490669 0003 001c 4
E: 29632.490669 0000 0000 0
E: 29632.500330 0003 001c 3
E: 29632.500330 0003 001c 4
E: 29632.500330 0000 0000 0
E: 29632.510225 0003 001c 3
E: 29632.510225 0003 001c 4
E: 29632.510225 0000 0000 0
E: 29632.520033 0003 001c 3
E: 29632.520033 0003 001c 4
E: 29632.520033 0000 0000 0
E: 29632.529685 0003 002f 0
E: 29632.529685 0003 0036 419
E: 29632.529685 0003 001c 3
E: 29632.529685 0003 001c 4
E: 29632.529685 0003 0001 419
E: 29632.529685 0000 0000 0
E: 29632.539575 0003 001c 3
E: 29632.539575 0003 001c 4
E: 29632.539575 0000 0000 0
E: 29632.549360 0003 001c 3
E: 29632.549360 0003 001c 4
E: 29632.549360 0000 0000 0
E: 29632.559122 0003 001c 3
E: 29632.559122 0003 001c 4
E: 29632.559122 0000 0000 0
E: 29632.568904 0003 0036 420
E: 29632.568904 0003 001c 3
E: 29632.568904 0003 001c 4
E: 29632.568904 0003 0001 420
E: 29632.568904 0000 0000 0
E: 29632.578597 0003 0035 1076
E: 29632.578597 0003 0036 421
E: 29632.578597 0003 001c 3
E: 29632.578597 0003 0030 296
E: 29632.578597 0003 002f 1
E: 29632.578597 0003 0035 1626
E: 29632.578597 0003 0036 428
E: 29632.578597 0003 003a 51
E: 29632.578597 0003 001c 4
E: 29632.578597 0003 0000 1076
E: 29632.578597 0003 0001 421
E: 29632.578597 0000 0000 0
E: 29632.588371 0003 002f 0
E: 29632.588371 0003 0036 423
E: 29632.588371 0003 003a 52
E: 29632.588371 0003 001c 3
E: 29632.588371 0003 0030 222
E: 29632.588371 0003 002f 1
E: 29632.588371 0003 0035 1627
E: 29632.588371 0003 0036 431
E: 29632.588371 0003 001c 4
E: 29632.588371 0003 0031 148
E: 29632.588371 0003 0001 423
E: 29632.588371 0003 0018 52
E: 29632.588371 0000 0000 0
E: 29632.598259 0003 002f 0
E: 29632.598259 0003 0036 433
E: 29632.598259 0003 001c 3
E: 29632.598259 0003 0030 296
E: 29632.598259 0003 002f 1
E: 29632.598259 0003 0035 1625
E: 29632.598259 0003 0036 444
E: 29632.598259 0003 003a 53
E: 29632.598259 0003 001c 4
E: 29632.598259 0003 0031 222
E: 29632.598259 0003 0001 433
E: 29632.598259 0000 0000 0
E: 29632.608041 0003 002f 0
E: 29632.608041 0003 0035 1073
E: 29632.608041 0003 0036 460
E: 29632.608041 0003 003a 51
E: 29632.608041 0003 001c 3
E: 29632.608041 0003 0030 222
E: 29632.608041 0003 002f 1
E: 29632.608041 0003 0035 1620
E: 29632.608041 0003 0036 479
E: 29632.608041 0003 001c 4
E: 29632.608041 0003 0000 1073
E: 29632.608041 0003 0001 460
E: 29632.608041 0003 0018 51
E: 29632.608041 0000 0000 0
E: 29632.617735 0003 002f 0
E: 29632.617735 0003 0035 1070
E: 29632.617735 0003 0036 532
E: 29632.617735 0003 003a 56
E: 29632.617735 0003 001c 3
E: 29632.617735 0003 0030 296
E: 29632.617735 0003 002f 1
E: 29632.617735 0003 0035 1607
E: 29632.617735 0003 0036 583
E: 29632.617735 0003 003a 51
E: 29632.617735 0003 001c 4
E: 29632.617735 0003 0030 296
E: 29632.617735 0003 0031 276
E: 29632.617735 0003 0000 1070
E: 29632.617735 0003 0001 532
E: 29632.617735 0003 0018 56
E: 29632.617735 0000 0000 0
E: 29632.627597 0003 002f 0
E: 29632.627597 0003 0035 1075
E: 29632.627597 0003 0036 769
E: 29632.627597 0003 003a 44
E: 29632.627597 0003 001c 3
E: 29632.627597 0003 0030 207
E: 29632.627597 0003 0031 148
E: 29632.627597 0003 002f 1
E: 29632.627597 0003 0035 1599
E: 29632.627597 0003 0036 858
E: 29632.627597 0003 003a 43
E: 29632.627597 0003 001c 4
E: 29632.627597 0003 0030 276
E: 29632.627597 0003 0031 222
E: 29632.627597 0003 0000 1075
E: 29632.627597 0003 0001 769
E: 29632.627597 0003 0018 44
E: 29632.627597 0000 0000 0
E: 29632.637387 0003 002f 0
E: 29632.637387 0003 0035 1087
E: 29632.637387 0003 0036 990
E: 29632.637387 0003 003a 42
E: 29632.637387 0003 001c 3
E: 29632.637387 0003 002f 1
E: 29632.637387 0003 0035 1622
E: 29632.637387 0003 0036 1107
E: 29632.637387 0003 003a 41
E: 29632.637387 0003 0030 207
E: 29632.637387 0003 0031 148
E: 29632.637387 0003 0000 1087
E: 29632.637387 0003 0001 990
E: 29632.637387 0003 0018 42
E: 29632.637387 0000 0000 0
E: 29632.647159 0003 002f 0
E: 29632.647159 0003 0035 1118
E: 29632.647159 0003 0036 1254
E: 29632.647159 0003 003a 39
E: 29632.647159 0003 002f 1
E: 29632.647159 0003 0035 1659
E: 29632.647159 0003 0036 1357
E: 29632.647159 0003 003a 40
E: 29632.647159 0003 001c 2
E: 29632.647159 0003 0030 148
E: 29632.647159 0003 0031 138
E: 29632.647159 0003 0000 1118
E: 29632.647159 0003 0001 1254
E: 29632.647159 0003 0018 39
E: 29632.647159 0000 0000 0
E: 29632.656947 0003 002f 0
E: 29632.656947 0003 0035 1149
E: 29632.656947 0003 0036 1518
E: 29632.656947 0003 0030 148
E: 29632.656947 0003 0031 138
E: 29632.656947 0003 002f 1
E: 29632.656947 0003 0035 1696
E: 29632.656947 0003 0036 1607
E: 29632.656947 0003 001c 1
E: 29632.656947 0003 0030 74
E: 29632.656947 0003 0031 69
E: 29632.656947 0003 0000 1149
E: 29632.656947 0003 0001 1518
E: 29632.656947 0000 0000 0
E: 29632.666724 0003 002f 0
E: 29632.666724 0003 0035 1163
E: 29632.666724 0003 0036 1644
E: 29632.666724 0003 0030 74
E: 29632.666724 0003 0031 69
E: 29632.666724 0003 002f 1
E: 29632.666724 0003 0035 1701
E: 29632.666724 0003 0036 1644
E: 29632.666724 0003 0000 1163
E: 29632.666724 0003 0001 1644
E: 29632.666724 0000 0000 0
E: 29632.676442 0003 002f 0
E: 29632.676442 0003 0039 -1
E: 29632.676442 0003 002f 1
E: 29632.676442 0003 0039 -1
E: 29632.676442 0001 014a 0
E: 29632.676442 0001 014d 0
E: 29632.676442 0003 0018 0
E: 29632.676442 0000 0000 0
E: 29632.676942 0003 002f 0
E: 29632.676942 0003 0039 -1
E: 29632.676942 0003 002f 1
E: 29632.676942 0003 0039 -1
E: 29632.676942 0003 002f 2
E: 29632.676942 0003 0039 -1
E: 29632.676942 0003 002f 3
E: 29632.676942 0003 0039 -1
E: 29632.676942 0003 002f 4
E: 29632.676942 0003 0039 -1
