# device: Elan Touchpad
# bit: 0B 00 00 00 00 00 00 00
# key: 00 00 00 00 00 00 00 00 00 00 00 00 00 00 00 00 00 00 00 00 00 00 00 00 00 00 00 00 00 00 00 00 00 00 01 00 00 00 00 00 20 E5 00 00 00 00 00 00 00 00 00 00 00 00 00 00 00 00 00 00 00 00 00 00 00 00 00 00 00 00 00 00 00 00 00 00 00 00 00 00 00 00 00 00 00 00 00 00 00 00 00 00 00 00 00 00
# rel: 00 00 00 00 00 00 00 00
# abs: 03 00 00 11 00 80 63 06
# led: 00 00 00 00 00 00 00 00
# prp: 05 00 00 00 00 00 00 00
# absinfo: 0 0 3108 0 0 31
# absinfo: 1 0 2032 0 0 31
# absinfo: 24 0 255 0 0 0
# absinfo: 28 0 15 0 0 0
# absinfo: 47 0 4 0 0 0
# absinfo: 48 0 2340 0 0 0
# absinfo: 49 0 2325 0 0 0
# absinfo: 53 0 3108 0 0 31
# absinfo: 54 0 2032 0 0 31
# absinfo: 57 0 65535 0 0 0
# absinfo: 58 0 255 0 0 0
E: 1000.550779 0003 002f 0
E: 1000.550779 0003 0030 132
E: 1000.550779 0003 0031 130
E: 1000.550779 0003 0032 0
E: 1000.550779 0003 0033 0
E: 1000.550779 0003 0034 0
E: 1000.550779 0003 0035 1361
E: 1000.550779 0003 0036 1856
E: 1000.550779 0003 0037 0
E: 1000.550779 0003 0038 0
E: 1000.550779 0003 0039 41
E: 1000.550779 0003 003a 43
E: 1000.550779 0003 003b 0
E: 1000.550779 0003 002f 1
E: 1000.550779 0003 0039 -1
E: 1000.550779 0003 002f 2
E: 1000.550779 0003 0039 -1
E: 1000.550779 0003 002f 3
E: 1000.550779 0003 0039 -1
E: 1000.550779 0003 002f 4
E: 1000.550779 0003 0039 -1
E: 1000.550779 0003 002f 0
E: 1000.550779 0001 0145 1
E: 1000.550779 0001 014a 1
E: 1000.550779 0000 0000 0
E: 1000.557423 0003 003a 44
E: 1000.557423 0003 0018 44
E: 1000.557423 0000 0000 0
E: 1000.597110 0003 003a 46
E: 1000.597110 0003 0030 198
E: 1000.597110 0003 0018 46
E: 1000.597110 0000 0000 0
E: 1000.607027 0003 0036 1852
E: 1000.607027 0003 0001 1852
E: 1000.607027 0000 0000 0
E: 1000.616929 0003 0035 1362
E: 1000.616929 0003 0036 1840
E: 1000.616929 0003 0000 1362
E: 1000.616929 0003 0001 1840
E: 1000.616929 0000 0000 0
E: 1000.626894 0003 0035 1367
E: 1000.626894 0003 0036 1816
E: 1000.626894 0003 003a 47
E: 1000.626894 0003 001c 3
E: 1000.626894 0003 0030 195
E: 1000.626894 0003 0031 132
E: 1000.626894 0003 0000 1367
E: 1000.626894 0003 0001 1816
E: 1000.626894 0003 0018 47
E: 1000.626894 0000 0000 0
E: 1000.636833 0003 0035 1373
E: 1000.636833 0003 0036 1779
E: 1000.636833 0003 003a 46
E: 1000.636833 0003 0000 1373
E: 1000.636833 0003 0001 1779
E: 1000.636833 0003 0018 46
E: 1000.636833 0000 0000 0
E: 1000.646809 0003 0035 1385
E: 1000.646809 0003 0036 1646
E: 1000.646809 0003 003a 45
E: 1000.646809 0003 0000 1385
E: 1000.646809 0003 0001 1646
E: 1000.646809 0003 0018 45
E: 1000.646809 0000 0000 0
E: 1000.656838 0003 0035 1383
E: 1000.656838 0003 0036 1427
E: 1000.656838 0003 003a 47
E: 1000.656838 0003 0000 1383
E: 1000.656838 0003 0001 1427
E: 1000.656838 0003 0018 47
E: 1000.656838 0000 0000 0
E: 1000.666713 0003 0035 1366
E: 1000.666713 0003 0036 1209
E: 1000.666713 0003 003a 45
E: 1000.666713 0003 001c 2
E: 1000.666713 0003 0030 132
E: 1000.666713 0003 0031 130
E: 1000.666713 0003 0000 1366
E: 1000.666713 0003 0001 1209
E: 1000.666713 0003 0018 45
E: 1000.666713 0000 0000 0
E: 1000.676716 0003 0035 1355
E: 1000.676716 0003 0036 977
E: 1000.676716 0003 003a 48
E: 1000.676716 0003 0030 198
E: 1000.676716 0003 0000 1355
E: 1000.676716 0003 0001 977
E: 1000.676716 0003 0018 48
E: 1000.676716 0000 0000 0
E: 1000.686572 0003 0035 1346
E: 1000.686572 0003 0036 669
E: 1000.686572 0003 003a 50
E: 1000.686572 0003 0000 1346
E: 1000.686572 0003 0001 669
E: 1000.686572 0003 0018 50
E: 1000.686572 0000 0000 0
E: 1000.696524 0003 0035 1373
E: 1000.696524 0003 0036 333
E: 1000.696524 0003 003a 43
E: 1000.696524 0003 0030 132
E: 1000.696524 0003 0000 1373
E: 1000.696524 0003 0001 333
E: 1000.696524 0003 0018 43
E: 1000.696524 0000 0000 0
E: 1000.706516 0003 0035 1400
E: 1000.706516 0003 0036 0
E: 1000.706516 0003 001c 1
E: 1000.706516 0003 0030 66
E: 1000.706516 0003 0031 65
E: 1000.706516 0003 0000 1400
E: 1000.706516 0003 0001 0
E: 1000.706516 0000 0000 0
E: 1000.716474 0003 0039 -1
E: 1000.716474 0001 014a 0
E: 1000.716474 0001 0145 0
E: 1000.716474 0003 0018 0
E: 1000.716474 0000 0000 0
E: 1001.525486 0003 0039 42
E: 1001.525486 0003 0035 1208
E: 1001.525486 0003 0036 883
E: 1001.525486 0003 003a 52
E: 1001.525486 0003 001c 3
E: 1001.525486 0003 0030 195
E: 1001.525486 0003 0031 132
E: 1001.525486 0001 014a 1
E: 1001.525486 0001 0145 1
E: 1001.525486 0003 0000 1208
E: 1001.525486 0003 0001 883
E: 1001.525486 0003 0018 52
E: 1001.525486 0000 0000 0
E: 1001.532264 0003 003a 54
E: 1001.532264 0003 0018 54
E: 1001.532264 0000 0000 0
E: 1001.542233 0003 003a 55
E: 1001.542233 0003 0018 55
E: 1001.542233 0000 0000 0
E: 1001.552158 0003 0036 880
E: 1001.552158 0003 0001 880
E: 1001.552158 0000 0000 0
E: 1001.562124 0003 0035 1210
E: 1001.562124 0003 0036 875
E: 1001.562124 0003 0030 198
E: 1001.562124 0003 0031 195
E: 1001.562124 0003 0000 1210
E: 1001.562124 0003 0001 875
E: 1001.562124 0000 0000 0
E: 1001.572516 0003 0035 1218
E: 1001.572516 0003 0036 869
E: 1001.572516 0003 0000 1218
E: 1001.572516 0003 0001 869
E: 1001.572516 0000 0000 0
E: 1001.582039 0003 0035 1238
E: 1001.582039 0003 0036 863
E: 1001.582039 0003 003a 56
E: 1001.582039 0003 0000 1238
E: 1001.582039 0003 0001 863
E: 1001.582039 0003 0018 56
E: 1001.582039 0000 0000 0
E: 1001.591972 0003 0035 1288
E: 1001.591972 0003 0036 857
E: 1001.591972 0003 0000 1288
E: 1001.591972 0003 0001 857
E: 1001.591972 0000 0000 0
E: 1001.601913 0003 0035 1367
E: 1001.601913 0003 0036 863
E: 1001.601913 0003 0030 195
E: 1001.601913 0003 0031 132
E: 1001.601913 0003 0000 1367
E: 1001.601913 0003 0001 863
E: 1001.601913 0000 0000 0
E: 1001.611866 0003 0035 1474
E: 1001.611866 0003 0036 880
E: 1001.611866 0003 003a 57
E: 1001.611866 0003 0030 198
E: 1001.611866 0003 0031 195
E: 1001.611866 0003 0000 1474
E: 1001.611866 0003 0001 880
E: 1001.611866 0003 0018 57
E: 1001.611866 0000 0000 0
E: 1001.621896 0003 0035 1568
E: 1001.621896 0003 0036 897
E: 1001.621896 0003 003a 56
E: 1001.621896 0003 0000 1568
E: 1001.621896 0003 0001 897
E: 1001.621896 0003 0018 56
E: 1001.621896 0000 0000 0
E: 1001.631801 0003 0035 1646
E: 1001.631801 0003 0036 918
E: 1001.631801 0003 0000 1646
E: 1001.631801 0003 0001 918
E: 1001.631801 0000 0000 0
E: 1001.641737 0003 0035 1756
E: 1001.641737 0003 0036 931
E: 1001.641737 0003 0000 1756
E: 1001.641737 0003 0001 931
E: 1001.641737 0000 0000 0
E: 1001.651714 0003 0035 1876
E: 1001.651714 0003 0036 942
E: 1001.651714 0003 003a 55
E: 1001.651714 0003 0000 1876
E: 1001.651714 0003 0001 942
E: 1001.651714 0003 0018 55
E: 1001.651714 0000 0000 0
E: 1001.661620 0003 0035 1991
E: 1001.661620 0003 003a 56
E: 1001.661620 0003 0000 1991
E: 1001.661620 0003 0018 56
E: 1001.661620 0000 0000 0
E: 1001.671375 0003 0035 2136
E: 1001.671375 0003 0036 935
E: 1001.671375 0003 0000 2136
E: 1001.671375 0003 0001 935
E: 1001.671375 0000 0000 0
E: 1001.681506 0003 0035 2281
E: 1001.681506 0003 0036 923
E: 1001.681506 0003 0000 2281
E: 1001.681506 0003 0001 923
E: 1001.681506 0000 0000 0
E: 1001.691853 0003 0035 2454
E: 1001.691853 0003 0036 917
E: 1001.691853 0003 003a 55
E: 1001.691853 0003 0000 2454
E: 1001.691853 0003 0001 917
E: 1001.691853 0003 0018 55
E: 1001.691853 0000 0000 0
E: 1001.701420 0003 0035 2622
E: 1001.701420 0003 0036 912
E: 1001.701420 0003 003a 56
E: 1001.701420 0003 0000 2622
E: 1001.701420 0003 0001 912
E: 1001.701420 0003 0018 56
E: 1001.701420 0000 0000 0
E: 1001.711397 0003 0035 2805
E: 1001.711397 0003 0036 918
E: 1001.711397 0003 003a 54
E: 1001.711397 0003 0000 2805
E: 1001.711397 0003 0001 918
E: 1001.711397 0003 0018 54
E: 1001.711397 0000 0000 0
E: 1001.721356 0003 0035 2990
E: 1001.721356 0003 0036 937
E: 1001.721356 0003 001c 2
E: 1001.721356 0003 0031 130
E: 1001.721356 0003 0000 2990
E: 1001.721356 0003 0001 937
E: 1001.721356 0000 0000 0
E: 1001.731675 0003 001c 1
E: 1001.731675 0003 0030 66
E: 1001.731675 0003 0031 65
E: 1001.731675 0000 0000 0
E: 1001.741172 0003 0039 -1
E: 1001.741172 0001 014a 0
E: 1001.741172 0001 0145 0
E: 1001.741172 0003 0018 0
E: 1001.741172 0000 0000 0
E: 1003.277755 0003 0039 43
E: 1003.277755 0003 0035 1552
E: 1003.277755 0003 0036 215
E: 1003.277755 0003 003a 53
E: 1003.277755 0003 001c 3
E: 1003.277755 0003 0030 198
E: 1003.277755 0003 0031 195
E: 1003.277755 0001 014a 1
E: 1003.277755 0001 0145 1
E: 1003.277755 0003 0000 1552
E: 1003.277755 0003 0001 215
E: 1003.277755 0003 0018 53
E: 1003.277755 0000 0000 0
E: 1003.283505 0003 003a 56
E: 1003.283505 0003 0018 56
E: 1003.283505 0000 0000 0
E: 1003.293757 0003 003a 58
E: 1003.293757 0003 0018 58
E: 1003.293757 0000 0000 0
E: 1003.303309 0003 003a 59
E: 1003.303309 0003 0018 59
E: 1003.303309 0000 0000 0
E: 1003.313081 0003 0035 1553
E: 1003.313081 0003 0036 224
E: 1003.313081 0003 003a 60
E: 1003.313081 0003 0030 264
E: 1003.313081 0003 0000 1553
E: 1003.313081 0003 0001 224
E: 1003.313081 0003 0018 60
E: 1003.313081 0000 0000 0
E: 1003.323316 0003 0035 1555
E: 1003.323316 0003 0036 262
E: 1003.323316 0003 003a 63
E: 1003.323316 0003 0030 198
E: 1003.323316 0003 0000 1555
E: 1003.323316 0003 0001 262
E: 1003.323316 0003 0018 63
E: 1003.323316 0000 0000 0
E: 1003.333174 0003 0035 1556
E: 1003.333174 0003 0036 336
E: 1003.333174 0003 0030 264
E: 1003.333174 0003 0000 1556
E: 1003.333174 0003 0001 336
E: 1003.333174 0000 0000 0
E: 1003.343511 0003 0035 1549
E: 1003.343511 0003 0036 488
E: 1003.343511 0003 003a 65
E: 1003.343511 0003 0030 198
E: 1003.343511 0003 0000 1549
E: 1003.343511 0003 0001 488
E: 1003.343511 0003 0018 65
E: 1003.343511 0000 0000 0
E: 1003.353080 0003 0035 1538
E: 1003.353080 0003 0036 621
E: 1003.353080 0003 0000 1538
E: 1003.353080 0003 0001 621
E: 1003.353080 0000 0000 0
E: 1003.363029 0003 0035 1534
E: 1003.363029 0003 0036 751
E: 1003.363029 0003 003a 64
E: 1003.363029 0003 0000 1534
E: 1003.363029 0003 0001 751
E: 1003.363029 0003 0018 64
E: 1003.363029 0000 0000 0
E: 1003.372976 0003 0035 1525
E: 1003.372976 0003 0036 893
E: 1003.372976 0003 003a 61
E: 1003.372976 0003 0000 1525
E: 1003.372976 0003 0001 893
E: 1003.372976 0003 0018 61
E: 1003.372976 0000 0000 0
E: 1003.382910 0003 0035 1526
E: 1003.382910 0003 0036 1059
E: 1003.382910 0003 003a 59
E: 1003.382910 0003 0000 1526
E: 1003.382910 0003 0001 1059
E: 1003.382910 0003 0018 59
E: 1003.382910 0000 0000 0
E: 1003.392837 0003 0036 1284
E: 1003.392837 0003 003a 54
E: 1003.392837 0003 0030 195
E: 1003.392837 0003 0031 132
E: 1003.392837 0003 0001 1284
E: 1003.392837 0003 0018 54
E: 1003.392837 0000 0000 0
E: 1003.402768 0003 0035 1523
E: 1003.402768 0003 0036 1549
E: 1003.402768 0003 003a 48
E: 1003.402768 0003 0000 1523
E: 1003.402768 0003 0001 1549
E: 1003.402768 0003 0018 48
E: 1003.402768 0000 0000 0
E: 1003.412740 0003 0035 1520
E: 1003.412740 0003 0036 1814
E: 1003.412740 0003 001c 1
E: 1003.412740 0003 0030 66
E: 1003.412740 0003 0031 65
E: 1003.412740 0003 0000 1520
E: 1003.412740 0003 0001 1814
E: 1003.412740 0000 0000 0
E: 1003.422650 0003 0039 -1
E: 1003.422650 0001 014a 0
E: 1003.422650 0001 0145 0
E: 1003.422650 0003 0018 0
E: 1003.422650 0000 0000 0
E: 1004.162104 0003 0039 44
E: 1004.162104 0003 0035 2670
E: 1004.162104 0003 0036 1234
E: 1004.162104 0003 003a 50
E: 1004.162104 0003 001c 2
E: 1004.162104 0003 0030 198
E: 1004.162104 0003 0031 130
E: 1004.162104 0001 014a 1
E: 1004.162104 0001 0145 1
E: 1004.162104 0003 0000 2670
E: 1004.162104 0003 0001 1234
E: 1004.162104 0003 0018 50
E: 1004.162104 0000 0000 0
E: 1004.178838 0003 003a 51
E: 1004.178838 0003 0018 51
E: 1004.178838 0000 0000 0
E: 1004.189184 0003 003a 52
E: 1004.189184 0003 001c 3
E: 1004.189184 0003 0031 195
E: 1004.189184 0003 0018 52
E: 1004.189184 0000 0000 0
E: 1004.198877 0003 0035 2665
E: 1004.198877 0003 0036 1232
E: 1004.198877 0003 0000 2665
E: 1004.198877 0003 0001 1232
E: 1004.198877 0000 0000 0
E: 1004.208682 0003 0035 2645
E: 1004.208682 0003 0036 1222
E: 1004.208682 0003 0000 2645
E: 1004.208682 0003 0001 1222
E: 1004.208682 0000 0000 0
E: 1004.218738 0003 0035 2588
E: 1004.218738 0003 0036 1202
E: 1004.218738 0003 003a 50
E: 1004.218738 0003 001c 2
E: 1004.218738 0003 0031 130
E: 1004.218738 0003 0000 2588
E: 1004.218738 0003 0001 1202
E: 1004.218738 0003 0018 50
E: 1004.218738 0000 0000 0
E: 1004.228569 0003 0035 2518
E: 1004.228569 0003 0036 1182
E: 1004.228569 0003 003a 52
E: 1004.228569 0003 001c 3
E: 1004.228569 0003 0030 195
E: 1004.228569 0003 0031 132
E: 1004.228569 0003 0000 2518
E: 1004.228569 0003 0001 1182
E: 1004.228569 0003 0018 52
E: 1004.228569 0000 0000 0
E: 1004.238616 0003 0035 2419
E: 1004.238616 0003 0036 1167
E: 1004.238616 0003 0000 2419
E: 1004.238616 0003 0001 1167
E: 1004.238616 0000 0000 0
E: 1004.248511 0003 0035 2318
E: 1004.248511 0003 0036 1157
E: 1004.248511 0003 003a 54
E: 1004.248511 0003 0000 2318
E: 1004.248511 0003 0001 1157
E: 1004.248511 0003 0018 54
E: 1004.248511 0000 0000 0
E: 1004.258496 0003 0035 2225
E: 1004.258496 0003 0036 1139
E: 1004.258496 0003 003a 53
E: 1004.258496 0003 001c 2
E: 1004.258496 0003 0030 198
E: 1004.258496 0003 0031 130
E: 1004.258496 0003 0000 2225
E: 1004.258496 0003 0001 1139
E: 1004.258496 0003 0018 53
E: 1004.258496 0000 0000 0
E: 1004.268593 0003 0035 2132
E: 1004.268593 0003 0036 1115
E: 1004.268593 0003 003a 52
E: 1004.268593 0003 001c 3
E: 1004.268593 0003 0031 195
E: 1004.268593 0003 0000 2132
E: 1004.268593 0003 0001 1115
E: 1004.268593 0003 0018 52
E: 1004.268593 0000 0000 0
E: 1004.278500 0003 0035 2014
E: 1004.278500 0003 0036 1085
E: 1004.278500 0003 0000 2014
E: 1004.278500 0003 0001 1085
E: 1004.278500 0000 0000 0
E: 1004.288356 0003 0035 1877
E: 1004.288356 0003 0036 1051
E: 1004.288356 0003 003a 53
E: 1004.288356 0003 0000 1877
E: 1004.288356 0003 0001 1051
E: 1004.288356 0003 0018 53
E: 1004.288356 0000 0000 0
E: 1004.298290 0003 0035 1706
E: 1004.298290 0003 0036 1024
E: 1004.298290 0003 003a 55
E: 1004.298290 0003 0000 1706
E: 1004.298290 0003 0001 1024
E: 1004.298290 0003 0018 55
E: 1004.298290 0000 0000 0
E: 1004.308035 0003 0035 1526
E: 1004.308035 0003 0036 991
E: 1004.308035 0003 003a 54
E: 1004.308035 0003 0000 1526
E: 1004.308035 0003 0001 991
E: 1004.308035 0003 0018 54
E: 1004.308035 0000 0000 0
E: 1004.318258 0003 0035 1326
E: 1004.318258 0003 0036 951
E: 1004.318258 0003 003a 55
E: 1004.318258 0003 0000 1326
E: 1004.318258 0003 0001 951
E: 1004.318258 0003 0018 55
E: 1004.318258 0000 0000 0
E: 1004.328081 0003 0035 1117
E: 1004.328081 0003 0036 919
E: 1004.328081 0003 0000 1117
E: 1004.328081 0003 0001 919
E: 1004.328081 0000 0000 0
E: 1004.338100 0003 0035 888
E: 1004.338100 0003 0036 903
E: 1004.338100 0003 003a 56
E: 1004.338100 0003 001c 2
E: 1004.338100 0003 0031 130
E: 1004.338100 0003 0000 888
E: 1004.338100 0003 0001 903
E: 1004.338100 0003 0018 56
E: 1004.338100 0000 0000 0
E: 1004.348093 0003 0035 672
E: 1004.348093 0003 0036 893
E: 1004.348093 0003 003a 55
E: 1004.348093 0003 001c 3
E: 1004.348093 0003 0031 195
E: 1004.348093 0003 0000 672
E: 1004.348093 0003 0001 893
E: 1004.348093 0003 0018 55
E: 1004.348093 0000 0000 0
E: 1004.358026 0003 0035 463
E: 1004.358026 0003 0036 899
E: 1004.358026 0003 0000 463
E: 1004.358026 0003 0001 899
E: 1004.358026 0000 0000 0
E: 1004.367965 0003 0035 275
E: 1004.367965 0003 0036 925
E: 1004.367965 0003 003a 53
E: 1004.367965 0003 001c 2
E: 1004.367965 0003 0031 130
E: 1004.367965 0003 0000 275
E: 1004.367965 0003 0001 925
E: 1004.367965 0003 0018 53
E: 1004.367965 0000 0000 0
E: 1004.377896 0003 0035 63
E: 1004.377896 0003 0036 984
E: 1004.377896 0003 003a 48
E: 1004.377896 0003 0030 132
E: 1004.377896 0003 0000 63
E: 1004.377896 0003 0001 984
E: 1004.377896 0003 0018 48
E: 1004.377896 0000 0000 0
E: 1004.387936 0003 001c 1
E: 1004.387936 0003 0030 66
E: 1004.387936 0003 0031 65
E: 1004.387936 0000 0000 0
E: 1004.397755 0003 0039 -1
E: 1004.397755 0001 014a 0
E: 1004.397755 0001 0145 0
E: 1004.397755 0003 0018 0
E: 1004.397755 0000 0000 0
E: 1004.398255 0003 002f 0
E: 1004.398255 0003 0039 -1
E: 1004.398255 0003 002f 1
E: 1004.398255 0003 0039 -1
E: 1004.398255 0003 002f 2
E: 1004.398255 0003 0039 -1
E: 1004.398255 0003 002f 3
E: 1004.398255 0003 0039 -1
E: 1004.398255 0003 002f 4
E: 1004.398255 0003 0039 -1
